<?xml version="1.0" encoding="UTF-8" standalone="no"?>
<!-- Created with Inkscape (http://www.inkscape.org/) -->

<svg
   xmlns:dc="http://purl.org/dc/elements/1.1/"
   xmlns:cc="http://creativecommons.org/ns#"
   xmlns:rdf="http://www.w3.org/1999/02/22-rdf-syntax-ns#"
   xmlns:svg="http://www.w3.org/2000/svg"
   xmlns="http://www.w3.org/2000/svg"
   xmlns:xlink="http://www.w3.org/1999/xlink"
   xmlns:sodipodi="http://sodipodi.sourceforge.net/DTD/sodipodi-0.dtd"
   xmlns:inkscape="http://www.inkscape.org/namespaces/inkscape"
   width="414.24887mm"
   height="88.231911mm"
   viewBox="0 0 1467.811 312.63274"
   id="svg2"
   version="1.1"
   inkscape:version="0.92.3 (2405546, 2018-03-11)"
   sodipodi:docname="bd-appli-user-web-sql.svg">
  <defs
     id="defs4">
    <radialGradient
       r="147.14"
       cy="602.71997"
       cx="328.57001"
       gradientTransform="matrix(2.7784719,0,0,0.49193412,-4847.4559,167.0724)"
       gradientUnits="userSpaceOnUse"
       id="radialGradient5558"
       xlink:href="#radialGradient3693"
       inkscape:collect="always" />
    <radialGradient
       id="radialGradient3693"
       gradientUnits="userSpaceOnUse"
       cy="602.71997"
       cx="328.57001"
       gradientTransform="matrix(1,0,0,0.17718,0,495.93)"
       r="147.14"
       inkscape:collect="always">
      <stop
         id="stop12830"
         style="stop-color:rgb(72, 72, 73)"
         offset="0" />
      <stop
         id="stop12862"
         style="stop-color:rgb(67, 67, 68)"
         offset="0" />
      <stop
         id="stop12832"
         style="stop-color:rgb(143, 143, 144);stop-opacity:0"
         offset="1" />
    </radialGradient>
    <radialGradient
       r="147.14"
       cy="602.71997"
       cx="328.57001"
       gradientTransform="matrix(2.7784719,0,0,0.49193412,-4633.4977,194.8262)"
       gradientUnits="userSpaceOnUse"
       id="radialGradient5558-3"
       xlink:href="#radialGradient3693-6"
       inkscape:collect="always" />
    <radialGradient
       id="radialGradient3693-6"
       gradientUnits="userSpaceOnUse"
       cy="602.71997"
       cx="328.57001"
       gradientTransform="matrix(1,0,0,0.17718,0,495.93)"
       r="147.14"
       inkscape:collect="always">
      <stop
         id="stop12830-7"
         style="stop-color:rgb(72, 72, 73)"
         offset="0" />
      <stop
         id="stop12862-5"
         style="stop-color:rgb(67, 67, 68)"
         offset="0" />
      <stop
         id="stop12832-3"
         style="stop-color:rgb(143, 143, 144);stop-opacity:0"
         offset="1" />
    </radialGradient>
    <radialGradient
       r="147.14"
       cy="602.71997"
       cx="328.57001"
       gradientTransform="matrix(2.7784719,0,0,0.49193412,-4808.888,246.8771)"
       gradientUnits="userSpaceOnUse"
       id="radialGradient5558-9"
       xlink:href="#radialGradient3693-2"
       inkscape:collect="always" />
    <radialGradient
       id="radialGradient3693-2"
       gradientUnits="userSpaceOnUse"
       cy="602.71997"
       cx="328.57001"
       gradientTransform="matrix(1,0,0,0.17718,0,495.93)"
       r="147.14"
       inkscape:collect="always">
      <stop
         id="stop12830-0"
         style="stop-color:rgb(72, 72, 73)"
         offset="0" />
      <stop
         id="stop12862-2"
         style="stop-color:rgb(67, 67, 68)"
         offset="0" />
      <stop
         id="stop12832-37"
         style="stop-color:rgb(143, 143, 144);stop-opacity:0"
         offset="1" />
    </radialGradient>
    <marker
       inkscape:stockid="Arrow2Lend"
       orient="auto"
       refY="0"
       refX="0"
       id="marker5108-4-7"
       style="overflow:visible"
       inkscape:isstock="true">
      <path
         inkscape:connector-curvature="0"
         id="path5110-0-0"
         style="fill:#000000;fill-opacity:1;fill-rule:evenodd;stroke:#000000;stroke-width:0.625;stroke-linejoin:round;stroke-opacity:1"
         d="M 8.7185878,4.0337352 -2.2072895,0.01601326 8.7185884,-4.0017078 c -1.7454984,2.3720609 -1.7354408,5.6174519 -6e-7,8.035443 z"
         transform="matrix(-1.1,0,0,-1.1,-1.1,0)" />
    </marker>
    <marker
       inkscape:stockid="Arrow2Lend"
       orient="auto"
       refY="0"
       refX="0"
       id="marker5108-1"
       style="overflow:visible"
       inkscape:isstock="true">
      <path
         id="path5110-01"
         style="fill:#000000;fill-opacity:1;fill-rule:evenodd;stroke:#000000;stroke-width:0.625;stroke-linejoin:round;stroke-opacity:1"
         d="M 8.7185878,4.0337352 -2.2072895,0.01601326 8.7185884,-4.0017078 c -1.7454984,2.3720609 -1.7354408,5.6174519 -6e-7,8.035443 z"
         transform="matrix(-1.1,0,0,-1.1,-1.1,0)"
         inkscape:connector-curvature="0" />
    </marker>
    <marker
       inkscape:stockid="Arrow2Lend"
       orient="auto"
       refY="0"
       refX="0"
       id="marker5108-1-9"
       style="overflow:visible"
       inkscape:isstock="true">
      <path
         id="path5110-01-4"
         style="fill:#000000;fill-opacity:1;fill-rule:evenodd;stroke:#000000;stroke-width:0.625;stroke-linejoin:round;stroke-opacity:1"
         d="M 8.7185878,4.0337352 -2.2072895,0.01601326 8.7185884,-4.0017078 c -1.7454984,2.3720609 -1.7354408,5.6174519 -6e-7,8.035443 z"
         transform="matrix(-1.1,0,0,-1.1,-1.1,0)"
         inkscape:connector-curvature="0" />
    </marker>
    <marker
       inkscape:stockid="Arrow2Lend"
       orient="auto"
       refY="0"
       refX="0"
       id="marker5108-4-7-5"
       style="overflow:visible"
       inkscape:isstock="true">
      <path
         inkscape:connector-curvature="0"
         id="path5110-0-0-1"
         style="fill:#000000;fill-opacity:1;fill-rule:evenodd;stroke:#000000;stroke-width:0.625;stroke-linejoin:round;stroke-opacity:1"
         d="M 8.7185878,4.0337352 -2.2072895,0.01601326 8.7185884,-4.0017078 c -1.7454984,2.3720609 -1.7354408,5.6174519 -6e-7,8.035443 z"
         transform="matrix(-1.1,0,0,-1.1,-1.1,0)" />
    </marker>
    <linearGradient
       id="linearGradient3070">
      <stop
         offset="0"
         style="stop-color:#ffffff"
         id="stop3071" />
      <stop
         offset="1"
         style="stop-color:#ffffff;stop-opacity:0"
         id="stop3072" />
    </linearGradient>
    <linearGradient
       id="linearGradient2648">
      <stop
         offset="0"
         style="stop-color:#ffffff"
         id="stop2649" />
      <stop
         offset="1"
         style="stop-color:#4d4d4d"
         id="stop2650" />
    </linearGradient>
    <linearGradient
       x1="52.259998"
       x2="52.259998"
       y1="152.03999"
       gradientUnits="userSpaceOnUse"
       xlink:href="#linearGradient3070"
       y2="29.676001"
       id="linearGradient1011"
       gradientTransform="translate(-2486.8475,2169.3969)" />
    <linearGradient
       x1="43.397999"
       x2="38.977001"
       y1="-53.390999"
       gradientUnits="userSpaceOnUse"
       xlink:href="#linearGradient3070"
       y2="40.054001"
       id="linearGradient1010"
       gradientTransform="translate(-2594.029,2642.1797)" />
    <linearGradient
       x1="105.81"
       x2="82.344002"
       gradientTransform="matrix(1.1085,0,0,0.90212,-2180.4838,1493.4043)"
       y1="25.611"
       gradientUnits="userSpaceOnUse"
       xlink:href="#linearGradient3070"
       y2="46.946999"
       id="linearGradient864" />
    <radialGradient
       r="200.73"
       cx="227"
       cy="477.82999"
       gradientUnits="userSpaceOnUse"
       fy="325.76999"
       fx="240.39"
       id="radialGradient852"
       gradientTransform="translate(-6482.4845,4439.8266)">
      <stop
         offset="0"
         style="stop-color:#e3f9ff"
         id="stop854" />
      <stop
         offset=".36195"
         style="stop-color:#73bee7"
         id="stop867" />
      <stop
         offset=".62535"
         style="stop-color:#438ec5"
         id="stop856" />
      <stop
         offset=".72607"
         style="stop-color:#477daf"
         id="stop1185" />
      <stop
         offset="1"
         style="stop-color:#020407"
         id="stop855" />
    </radialGradient>
    <linearGradient
       id="linearGradient1400">
      <stop
         offset="0"
         style="stop-color:#000000;stop-opacity:.67843"
         id="stop1401" />
      <stop
         offset=".41708"
         style="stop-color:#000000;stop-opacity:.34831"
         id="stop1403" />
      <stop
         offset="1"
         style="stop-color:#ffffff;stop-opacity:0"
         id="stop1402" />
    </linearGradient>
    <radialGradient
       r="68.378998"
       cx="79.896004"
       cy="77.945"
       gradientUnits="userSpaceOnUse"
       xlink:href="#linearGradient1400"
       id="radialGradient858"
       gradientTransform="translate(-2180.4838,4172.856)" />
    <linearGradient
       x1="100.41"
       x2="203.60001"
       gradientTransform="matrix(1.6488,0,0,0.6065,10822.519,7412.2983)"
       y1="957.48999"
       gradientUnits="userSpaceOnUse"
       xlink:href="#linearGradient2648"
       y2="1332.7"
       id="linearGradient2646" />
    <linearGradient
       x1="134.94"
       x2="339.51999"
       gradientTransform="matrix(1.6098,0,0,0.62119,10822.519,7412.2983)"
       y1="1157.4"
       gradientUnits="userSpaceOnUse"
       xlink:href="#linearGradient2648"
       y2="1586.8"
       id="linearGradient2647" />
    <linearGradient
       x1="1496.7"
       x2="65.468002"
       gradientTransform="matrix(0.75765,0,0,1.3199,10822.519,7412.2983)"
       y1="1288.6"
       gradientUnits="userSpaceOnUse"
       xlink:href="#linearGradient2648"
       y2="253.67999"
       id="linearGradient2651" />
    <linearGradient
       x1="144.78999"
       x2="1646.1"
       gradientTransform="matrix(0.75765,0,0,1.3199,10822.519,7412.2983)"
       y1="329.13"
       gradientUnits="userSpaceOnUse"
       xlink:href="#linearGradient2648"
       y2="1429.6"
       id="linearGradient2652" />
    <linearGradient
       x1="56.625999"
       x2="61.999001"
       y1="75.537003"
       gradientUnits="userSpaceOnUse"
       xlink:href="#linearGradient2648"
       y2="81.318001"
       id="linearGradient2661"
       gradientTransform="translate(504.59311,345.59372)" />
    <linearGradient
       x1="1140.7"
       x2="1140.7"
       gradientTransform="matrix(0.22443,0,0,4.4557,10822.519,7412.2983)"
       y1="205.63"
       gradientUnits="userSpaceOnUse"
       xlink:href="#linearGradient3070"
       y2="190.82001"
       id="linearGradient2662" />
    <linearGradient
       x1="109.33"
       x2="166.33"
       gradientTransform="matrix(1.6488,0,0,0.6065,10822.519,7412.2983)"
       y1="792.85999"
       gradientUnits="userSpaceOnUse"
       xlink:href="#linearGradient2648"
       y2="1162.3"
       id="linearGradient2664" />
    <linearGradient
       x1="100.92"
       x2="264.28"
       gradientTransform="matrix(1.4208,0,0,0.70381,10822.519,7412.2983)"
       y1="1084.2"
       gradientUnits="userSpaceOnUse"
       xlink:href="#linearGradient2648"
       y2="1664.4"
       id="linearGradient2665" />
    <radialGradient
       r="68.378998"
       cx="79.896004"
       cy="77.945"
       gradientUnits="userSpaceOnUse"
       xlink:href="#linearGradient1400"
       fy="-0.84030998"
       fx="76.945999"
       id="radialGradient2927"
       gradientTransform="translate(-2180.4838,4172.856)" />
    <linearGradient
       x1="54.853001"
       y1="71.867996"
       x2="58.014999"
       gradientUnits="userSpaceOnUse"
       y2="77.287003"
       id="linearGradient2928"
       gradientTransform="translate(4.1579194,1.6365079)">
      <stop
         offset="0"
         style="stop-color:#000000"
         id="stop2699" />
      <stop
         offset="1"
         style="stop-color:#000000;stop-opacity:0"
         id="stop2700" />
    </linearGradient>
    <linearGradient
       x1="34.117001"
       x2="75.310997"
       gradientTransform="matrix(0.90413,0,0,1.106,1526.9492,1045.8012)"
       y1="110.2"
       gradientUnits="userSpaceOnUse"
       xlink:href="#linearGradient3070"
       y2="110.95"
       id="linearGradient2697" />
    <linearGradient
       x1="52.259998"
       x2="52.259998"
       y1="152.03999"
       gradientUnits="userSpaceOnUse"
       xlink:href="#linearGradient3070"
       y2="29.676001"
       id="linearGradient14027" />
    <linearGradient
       x1="43.397999"
       x2="38.977001"
       y1="-53.390999"
       gradientUnits="userSpaceOnUse"
       xlink:href="#linearGradient3070"
       y2="40.054001"
       id="linearGradient14029" />
    <linearGradient
       x1="105.81"
       x2="82.344002"
       gradientTransform="scale(1.1085,0.90212)"
       y1="25.611"
       gradientUnits="userSpaceOnUse"
       xlink:href="#linearGradient3070"
       y2="46.946999"
       id="linearGradient14031" />
    <radialGradient
       r="200.73"
       cx="227"
       cy="477.82999"
       gradientUnits="userSpaceOnUse"
       fy="325.76999"
       fx="240.39"
       id="radialGradient852-4"
       gradientTransform="translate(-4034.6714,3426.9384)">
      <stop
         offset="0"
         style="stop-color:#e3f9ff"
         id="stop854-0" />
      <stop
         offset=".36195"
         style="stop-color:#73bee7"
         id="stop867-0" />
      <stop
         offset=".62535"
         style="stop-color:#438ec5"
         id="stop856-4" />
      <stop
         offset=".72607"
         style="stop-color:#477daf"
         id="stop1185-6" />
      <stop
         offset="1"
         style="stop-color:#020407"
         id="stop855-2" />
    </radialGradient>
    <radialGradient
       r="68.378998"
       cx="79.896004"
       cy="77.945"
       gradientUnits="userSpaceOnUse"
       xlink:href="#linearGradient1400"
       id="radialGradient858-6"
       gradientTransform="translate(-1357.1241,3220.8736)" />
    <linearGradient
       x1="100.41"
       x2="203.60001"
       gradientTransform="scale(1.6488,0.6065)"
       y1="957.48999"
       gradientUnits="userSpaceOnUse"
       xlink:href="#linearGradient2648"
       y2="1332.7"
       id="linearGradient14040" />
    <linearGradient
       x1="134.94"
       x2="339.51999"
       gradientTransform="scale(1.6098,0.62119)"
       y1="1157.4"
       gradientUnits="userSpaceOnUse"
       xlink:href="#linearGradient2648"
       y2="1586.8"
       id="linearGradient14042" />
    <linearGradient
       x1="1496.7"
       x2="65.468002"
       gradientTransform="scale(0.75765,1.3199)"
       y1="1288.6"
       gradientUnits="userSpaceOnUse"
       xlink:href="#linearGradient2648"
       y2="253.67999"
       id="linearGradient14044" />
    <linearGradient
       x1="144.78999"
       x2="1646.1"
       gradientTransform="scale(0.75765,1.3199)"
       y1="329.13"
       gradientUnits="userSpaceOnUse"
       xlink:href="#linearGradient2648"
       y2="1429.6"
       id="linearGradient14046" />
    <linearGradient
       x1="56.625999"
       x2="61.999001"
       y1="75.537003"
       gradientUnits="userSpaceOnUse"
       xlink:href="#linearGradient2648"
       y2="81.318001"
       id="linearGradient14048" />
    <linearGradient
       x1="1140.7"
       x2="1140.7"
       gradientTransform="scale(0.22443,4.4557)"
       y1="205.63"
       gradientUnits="userSpaceOnUse"
       xlink:href="#linearGradient3070"
       y2="190.82001"
       id="linearGradient14050" />
    <linearGradient
       x1="109.33"
       x2="166.33"
       gradientTransform="scale(1.6488,0.6065)"
       y1="792.85999"
       gradientUnits="userSpaceOnUse"
       xlink:href="#linearGradient2648"
       y2="1162.3"
       id="linearGradient14052" />
    <linearGradient
       x1="100.92"
       x2="264.28"
       gradientTransform="scale(1.4208,0.70381)"
       y1="1084.2"
       gradientUnits="userSpaceOnUse"
       xlink:href="#linearGradient2648"
       y2="1664.4"
       id="linearGradient14054" />
    <radialGradient
       r="68.378998"
       cx="79.896004"
       cy="77.945"
       gradientUnits="userSpaceOnUse"
       xlink:href="#linearGradient1400"
       fy="-0.84030998"
       fx="76.945999"
       id="radialGradient2927-9"
       gradientTransform="translate(-1357.1241,3220.8736)" />
    <linearGradient
       x1="1140.7"
       x2="1140.7"
       gradientTransform="matrix(0.22443,0,0,4.4557,6735.8908,5721.2796)"
       y1="205.63"
       gradientUnits="userSpaceOnUse"
       xlink:href="#linearGradient3070"
       y2="190.82001"
       id="linearGradient3205" />
    <linearGradient
       x1="1140.7"
       x2="1140.7"
       gradientTransform="matrix(0.22443,0,0,4.4557,6735.8908,5721.2796)"
       y1="205.63"
       gradientUnits="userSpaceOnUse"
       xlink:href="#linearGradient3070"
       y2="190.82001"
       id="linearGradient3206" />
    <linearGradient
       x1="1140.7"
       x2="1140.7"
       gradientTransform="matrix(0.22443,0,0,4.4557,6735.8908,5721.2796)"
       y1="205.63"
       gradientUnits="userSpaceOnUse"
       xlink:href="#linearGradient3070"
       y2="190.82001"
       id="linearGradient3207" />
    <linearGradient
       x1="34.117001"
       x2="75.310997"
       gradientTransform="scale(0.90413,1.106)"
       y1="110.2"
       gradientUnits="userSpaceOnUse"
       xlink:href="#linearGradient3070"
       y2="110.95"
       id="linearGradient14060" />
    <linearGradient
       x1="52.259998"
       x2="52.259998"
       y1="152.03999"
       gradientUnits="userSpaceOnUse"
       xlink:href="#linearGradient3070"
       y2="29.676001"
       id="linearGradient1011-9"
       gradientTransform="translate(-20.49198,10.27286)" />
    <linearGradient
       x1="43.397999"
       x2="38.977001"
       y1="-53.390999"
       gradientUnits="userSpaceOnUse"
       xlink:href="#linearGradient3070"
       y2="40.054001"
       id="linearGradient1010-6"
       gradientTransform="translate(-21.375242,12.511648)" />
    <linearGradient
       x1="105.81"
       x2="82.344002"
       gradientTransform="matrix(1.1085,0,0,0.90212,-17.96755,7.071794)"
       y1="25.611"
       gradientUnits="userSpaceOnUse"
       xlink:href="#linearGradient3070"
       y2="46.946999"
       id="linearGradient864-1" />
    <radialGradient
       r="200.73"
       cx="227"
       cy="477.82999"
       gradientUnits="userSpaceOnUse"
       fy="325.76999"
       fx="240.39"
       id="radialGradient852-0"
       gradientTransform="translate(-53.416605,21.024141)">
      <stop
         offset="0"
         style="stop-color:#e3f9ff"
         id="stop854-4" />
      <stop
         offset=".36195"
         style="stop-color:#73bee7"
         id="stop867-2" />
      <stop
         offset=".62535"
         style="stop-color:#438ec5"
         id="stop856-2" />
      <stop
         offset=".72607"
         style="stop-color:#477daf"
         id="stop1185-2" />
      <stop
         offset="1"
         style="stop-color:#020407"
         id="stop855-0" />
    </radialGradient>
    <radialGradient
       r="68.378998"
       cx="79.896004"
       cy="77.945"
       gradientUnits="userSpaceOnUse"
       xlink:href="#linearGradient1400"
       id="radialGradient858-9"
       gradientTransform="translate(-17.96755,19.759944)" />
    <linearGradient
       x1="100.41"
       x2="203.60001"
       gradientTransform="matrix(1.6488,0,0,0.6065,89.179236,35.09983)"
       y1="957.48999"
       gradientUnits="userSpaceOnUse"
       xlink:href="#linearGradient2648"
       y2="1332.7"
       id="linearGradient2646-0" />
    <linearGradient
       x1="134.94"
       x2="339.51999"
       gradientTransform="matrix(1.6098,0,0,0.62119,89.179236,35.09983)"
       y1="1157.4"
       gradientUnits="userSpaceOnUse"
       xlink:href="#linearGradient2648"
       y2="1586.8"
       id="linearGradient2647-2" />
    <linearGradient
       x1="1496.7"
       x2="65.468002"
       gradientTransform="matrix(0.75765,0,0,1.3199,89.179236,35.09983)"
       y1="1288.6"
       gradientUnits="userSpaceOnUse"
       xlink:href="#linearGradient2648"
       y2="253.67999"
       id="linearGradient2651-8" />
    <linearGradient
       x1="144.78999"
       x2="1646.1"
       gradientTransform="matrix(0.75765,0,0,1.3199,89.179236,35.09983)"
       y1="329.13"
       gradientUnits="userSpaceOnUse"
       xlink:href="#linearGradient2648"
       y2="1429.6"
       id="linearGradient2652-3" />
    <linearGradient
       x1="56.625999"
       x2="61.999001"
       y1="75.537003"
       gradientUnits="userSpaceOnUse"
       xlink:href="#linearGradient2648"
       y2="81.318001"
       id="linearGradient2661-8"
       gradientTransform="translate(4.1579194,1.6365079)" />
    <linearGradient
       x1="1140.7"
       x2="1140.7"
       gradientTransform="matrix(0.22443,0,0,4.4557,89.179236,35.09983)"
       y1="205.63"
       gradientUnits="userSpaceOnUse"
       xlink:href="#linearGradient3070"
       y2="190.82001"
       id="linearGradient2662-0" />
    <linearGradient
       x1="109.33"
       x2="166.33"
       gradientTransform="matrix(1.6488,0,0,0.6065,89.179236,35.09983)"
       y1="792.85999"
       gradientUnits="userSpaceOnUse"
       xlink:href="#linearGradient2648"
       y2="1162.3"
       id="linearGradient2664-4" />
    <linearGradient
       x1="100.92"
       x2="264.28"
       gradientTransform="matrix(1.4208,0,0,0.70381,89.179236,35.09983)"
       y1="1084.2"
       gradientUnits="userSpaceOnUse"
       xlink:href="#linearGradient2648"
       y2="1664.4"
       id="linearGradient2665-0" />
    <radialGradient
       r="68.378998"
       cx="79.896004"
       cy="77.945"
       gradientUnits="userSpaceOnUse"
       xlink:href="#linearGradient1400"
       fy="-0.84030998"
       fx="76.945999"
       id="radialGradient2927-91"
       gradientTransform="translate(-17.96755,19.759944)" />
    <linearGradient
       x1="1140.7"
       x2="1140.7"
       gradientTransform="matrix(0.22443,0,0,4.4557,89.179236,35.09983)"
       y1="205.63"
       gradientUnits="userSpaceOnUse"
       xlink:href="#linearGradient3070"
       y2="190.82001"
       id="linearGradient3205-2" />
    <linearGradient
       x1="1140.7"
       x2="1140.7"
       gradientTransform="matrix(0.22443,0,0,4.4557,89.179236,35.09983)"
       y1="205.63"
       gradientUnits="userSpaceOnUse"
       xlink:href="#linearGradient3070"
       y2="190.82001"
       id="linearGradient3206-5" />
    <linearGradient
       x1="1140.7"
       x2="1140.7"
       gradientTransform="matrix(0.22443,0,0,4.4557,89.179236,35.09983)"
       y1="205.63"
       gradientUnits="userSpaceOnUse"
       xlink:href="#linearGradient3070"
       y2="190.82001"
       id="linearGradient3207-4" />
    <linearGradient
       x1="34.117001"
       x2="75.310997"
       gradientTransform="matrix(0.90413,0,0,1.106,12.582303,4.952236)"
       y1="110.2"
       gradientUnits="userSpaceOnUse"
       xlink:href="#linearGradient3070"
       y2="110.95"
       id="linearGradient2697-4" />
    <linearGradient
       x1="52.259998"
       x2="52.259998"
       y1="152.03999"
       gradientUnits="userSpaceOnUse"
       xlink:href="#linearGradient3070"
       y2="29.676001"
       id="linearGradient1011-5"
       gradientTransform="translate(-249.13853,52.163248)" />
    <linearGradient
       x1="43.397999"
       x2="38.977001"
       y1="-53.390999"
       gradientUnits="userSpaceOnUse"
       xlink:href="#linearGradient3070"
       y2="40.054001"
       id="linearGradient1010-0"
       gradientTransform="translate(-259.87624,63.531333)" />
    <linearGradient
       x1="105.81"
       x2="82.344002"
       gradientTransform="matrix(1.1085,0,0,0.90212,-218.44626,35.908975)"
       y1="25.611"
       gradientUnits="userSpaceOnUse"
       xlink:href="#linearGradient3070"
       y2="46.946999"
       id="linearGradient864-2" />
    <radialGradient
       r="200.73"
       cx="227"
       cy="477.82999"
       gradientUnits="userSpaceOnUse"
       fy="325.76999"
       fx="240.39"
       id="radialGradient852-9"
       gradientTransform="translate(-649.43133,106.75584)">
      <stop
         offset="0"
         style="stop-color:#e3f9ff"
         id="stop854-43" />
      <stop
         offset=".36195"
         style="stop-color:#73bee7"
         id="stop867-5" />
      <stop
         offset=".62535"
         style="stop-color:#438ec5"
         id="stop856-1" />
      <stop
         offset=".72607"
         style="stop-color:#477daf"
         id="stop1185-7" />
      <stop
         offset="1"
         style="stop-color:#020407"
         id="stop855-4" />
    </radialGradient>
    <radialGradient
       r="68.378998"
       cx="79.896004"
       cy="77.945"
       gradientUnits="userSpaceOnUse"
       xlink:href="#linearGradient1400"
       id="radialGradient858-69"
       gradientTransform="translate(-218.44626,100.33651)" />
    <linearGradient
       x1="100.41"
       x2="203.60001"
       gradientTransform="matrix(1.6488,0,0,0.6065,1084.2267,178.22905)"
       y1="957.48999"
       gradientUnits="userSpaceOnUse"
       xlink:href="#linearGradient2648"
       y2="1332.7"
       id="linearGradient2646-4" />
    <linearGradient
       x1="134.94"
       x2="339.51999"
       gradientTransform="matrix(1.6098,0,0,0.62119,1084.2267,178.22905)"
       y1="1157.4"
       gradientUnits="userSpaceOnUse"
       xlink:href="#linearGradient2648"
       y2="1586.8"
       id="linearGradient2647-22" />
    <linearGradient
       x1="1496.7"
       x2="65.468002"
       gradientTransform="matrix(0.75765,0,0,1.3199,1084.2267,178.22905)"
       y1="1288.6"
       gradientUnits="userSpaceOnUse"
       xlink:href="#linearGradient2648"
       y2="253.67999"
       id="linearGradient2651-6" />
    <linearGradient
       x1="144.78999"
       x2="1646.1"
       gradientTransform="matrix(0.75765,0,0,1.3199,1084.2267,178.22905)"
       y1="329.13"
       gradientUnits="userSpaceOnUse"
       xlink:href="#linearGradient2648"
       y2="1429.6"
       id="linearGradient2652-4" />
    <linearGradient
       x1="56.625999"
       x2="61.999001"
       y1="75.537003"
       gradientUnits="userSpaceOnUse"
       xlink:href="#linearGradient2648"
       y2="81.318001"
       id="linearGradient2661-1"
       gradientTransform="translate(50.551386,8.3098169)" />
    <linearGradient
       x1="1140.7"
       x2="1140.7"
       gradientTransform="matrix(0.22443,0,0,4.4557,1084.2267,178.22905)"
       y1="205.63"
       gradientUnits="userSpaceOnUse"
       xlink:href="#linearGradient3070"
       y2="190.82001"
       id="linearGradient2662-2" />
    <linearGradient
       x1="109.33"
       x2="166.33"
       gradientTransform="matrix(1.6488,0,0,0.6065,1084.2267,178.22905)"
       y1="792.85999"
       gradientUnits="userSpaceOnUse"
       xlink:href="#linearGradient2648"
       y2="1162.3"
       id="linearGradient2664-8" />
    <linearGradient
       x1="100.92"
       x2="264.28"
       gradientTransform="matrix(1.4208,0,0,0.70381,1084.2267,178.22905)"
       y1="1084.2"
       gradientUnits="userSpaceOnUse"
       xlink:href="#linearGradient2648"
       y2="1664.4"
       id="linearGradient2665-8" />
    <radialGradient
       r="68.378998"
       cx="79.896004"
       cy="77.945"
       gradientUnits="userSpaceOnUse"
       xlink:href="#linearGradient1400"
       fy="-0.84030998"
       fx="76.945999"
       id="radialGradient2927-92"
       gradientTransform="translate(-218.44626,100.33651)" />
    <linearGradient
       x1="54.853001"
       y1="71.867996"
       x2="58.014999"
       gradientUnits="userSpaceOnUse"
       y2="77.287003"
       id="linearGradient2928-8"
       gradientTransform="translate(50.551386,8.3098169)">
      <stop
         offset="0"
         style="stop-color:#000000"
         id="stop2699-8" />
      <stop
         offset="1"
         style="stop-color:#000000;stop-opacity:0"
         id="stop2700-8" />
    </linearGradient>
    <linearGradient
       x1="1140.7"
       x2="1140.7"
       gradientTransform="matrix(0.22443,0,0,4.4557,1084.2267,178.22905)"
       y1="205.63"
       gradientUnits="userSpaceOnUse"
       xlink:href="#linearGradient3070"
       y2="190.82001"
       id="linearGradient3205-6" />
    <linearGradient
       x1="1140.7"
       x2="1140.7"
       gradientTransform="matrix(0.22443,0,0,4.4557,1084.2267,178.22905)"
       y1="205.63"
       gradientUnits="userSpaceOnUse"
       xlink:href="#linearGradient3070"
       y2="190.82001"
       id="linearGradient3206-8" />
    <linearGradient
       x1="1140.7"
       x2="1140.7"
       gradientTransform="matrix(0.22443,0,0,4.4557,1084.2267,178.22905)"
       y1="205.63"
       gradientUnits="userSpaceOnUse"
       xlink:href="#linearGradient3070"
       y2="190.82001"
       id="linearGradient3207-3" />
    <linearGradient
       x1="34.117001"
       x2="75.310997"
       gradientTransform="matrix(0.90413,0,0,1.106,152.97355,25.146337)"
       y1="110.2"
       gradientUnits="userSpaceOnUse"
       xlink:href="#linearGradient3070"
       y2="110.95"
       id="linearGradient2697-8" />
    <radialGradient
       r="200.73"
       cx="227"
       cy="477.82999"
       gradientUnits="userSpaceOnUse"
       fy="325.76999"
       fx="240.39"
       id="radialGradient852-92">
      <stop
         offset="0"
         style="stop-color:#e3f9ff"
         id="stop854-2" />
      <stop
         offset=".36195"
         style="stop-color:#73bee7"
         id="stop867-4" />
      <stop
         offset=".62535"
         style="stop-color:#438ec5"
         id="stop856-7" />
      <stop
         offset=".72607"
         style="stop-color:#477daf"
         id="stop1185-75" />
      <stop
         offset="1"
         style="stop-color:#020407"
         id="stop855-48" />
    </radialGradient>
    <radialGradient
       r="68.378998"
       cx="79.896004"
       cy="77.945"
       gradientUnits="userSpaceOnUse"
       xlink:href="#linearGradient1400"
       id="radialGradient858-93" />
    <radialGradient
       r="68.378998"
       cx="79.896004"
       cy="77.945"
       gradientUnits="userSpaceOnUse"
       xlink:href="#linearGradient1400"
       fy="-0.84030998"
       fx="76.945999"
       id="radialGradient2927-0" />
    <linearGradient
       x1="54.853001"
       y1="71.867996"
       x2="58.014999"
       gradientUnits="userSpaceOnUse"
       y2="77.287003"
       id="linearGradient2928-85">
      <stop
         offset="0"
         style="stop-color:#000000"
         id="stop2699-0" />
      <stop
         offset="1"
         style="stop-color:#000000;stop-opacity:0"
         id="stop2700-6" />
    </linearGradient>
    <linearGradient
       inkscape:collect="always"
       xlink:href="#linearGradient3070"
       id="linearGradient5145"
       gradientUnits="userSpaceOnUse"
       gradientTransform="scale(0.22443,4.4557)"
       x1="1140.7"
       y1="205.63"
       x2="1140.7"
       y2="190.82001" />
    <linearGradient
       inkscape:collect="always"
       xlink:href="#linearGradient3070"
       id="linearGradient5147"
       gradientUnits="userSpaceOnUse"
       gradientTransform="scale(0.22443,4.4557)"
       x1="1140.7"
       y1="205.63"
       x2="1140.7"
       y2="190.82001" />
    <linearGradient
       inkscape:collect="always"
       xlink:href="#linearGradient3070"
       id="linearGradient5149"
       gradientUnits="userSpaceOnUse"
       gradientTransform="scale(0.22443,4.4557)"
       x1="1140.7"
       y1="205.63"
       x2="1140.7"
       y2="190.82001" />
  </defs>
  <sodipodi:namedview
     id="base"
     pagecolor="#ffffff"
     bordercolor="#666666"
     borderopacity="1.0"
     inkscape:pageopacity="0.0"
     inkscape:pageshadow="2"
     inkscape:zoom="0.86772068"
     inkscape:cx="630.64102"
     inkscape:cy="172.78437"
     inkscape:document-units="px"
     inkscape:current-layer="g5178"
     showgrid="false"
     inkscape:window-width="1600"
     inkscape:window-height="839"
     inkscape:window-x="0"
     inkscape:window-y="0"
     inkscape:window-maximized="1"
     fit-margin-top="0"
     fit-margin-left="0"
     fit-margin-right="0"
     fit-margin-bottom="0"
     units="mm" />
  <metadata
     id="metadata7">
    <rdf:RDF>
      <cc:Work
         rdf:about="">
        <dc:format>image/svg+xml</dc:format>
        <dc:type
           rdf:resource="http://purl.org/dc/dcmitype/StillImage" />
        <dc:title />
      </cc:Work>
    </rdf:RDF>
  </metadata>
  <g
     inkscape:label="Layer 1"
     inkscape:groupmode="layer"
     id="layer1"
     transform="translate(38.642194,577.26794)">
    <g
       id="g5178"
       transform="matrix(1.7091364,0,0,1.711291,-833.27381,174.7595)"
       style="stroke-width:0.58472234">
      <g
         transform="matrix(0.55558302,0,0,0.55598455,1068.6227,-397.33897)"
         id="g4301"
         style="stroke-width:0.58472234">
        <rect
           style="color:#000000;clip-rule:nonzero;display:inline;overflow:visible;visibility:visible;opacity:1;isolation:auto;mix-blend-mode:normal;color-interpolation:sRGB;color-interpolation-filters:linearRGB;solid-color:#000000;solid-opacity:1;fill:#eefcfe;fill-opacity:1;fill-rule:nonzero;stroke:#000000;stroke-width:1.05206811;stroke-linecap:butt;stroke-linejoin:round;stroke-miterlimit:4;stroke-dasharray:none;stroke-dashoffset:0;stroke-opacity:1;color-rendering:auto;image-rendering:auto;shape-rendering:auto;text-rendering:auto;enable-background:accumulate"
           id="rect4291"
           width="221.21776"
           height="276.78937"
           x="237.43442"
           y="-55.949158"
           rx="18.405964"
           ry="18.369514" />
        <g
           transform="matrix(0.6478061,0,0,0.6478061,102.7036,-321.41394)"
           id="layer1-6-59"
           inkscape:label="Layer 1"
           style="stroke-width:0.58472234">
          <g
             id="g5591-2"
             transform="translate(1231.0309,463.97355)"
             style="stroke-width:0.58472234">
            <ellipse
               transform="matrix(0.59257,0,0,1.0459,-1006.5909,-452.16569)"
               style="fill:url(#radialGradient5558-9);stroke-width:0.58472234"
               id="path5556-28"
               cx="328.57144"
               cy="602.7193"
               rx="147.14285"
               ry="26.071428" />
            <g
               id="g8136-97"
               transform="translate(1.9642857,90.952937)"
               style="stroke-width:0.58472234">
              <ellipse
                 transform="matrix(0.47131,0,0,1.0459,-967.313,-561.51148)"
                 style="fill:#d45500;stroke-width:0.58472234"
                 id="path8138-3"
                 cx="328.57144"
                 cy="602.7193"
                 rx="147.14285"
                 ry="26.071428" />
              <path
                 d="m -881.654,23.78572 v 0.29457 c 0.006,-0.0975 0.0206,-0.19729 0.0295,-0.29457 z m 138.62,0 c 0.0302,0.33044 0.0589,0.66821 0.0589,1.0015 v -1.0015 z m 0.0589,1.0015 c -10e-6,15.052 -31.075,27.262 -69.356,27.262 -37.683,1e-5 -68.377,-11.828 -69.326,-26.555 v 40.68 c -0.0151,0.23376 -0.0147,0.45704 -0.0147,0.69223 0,0.22546 8.7e-4,0.45335 0.0147,0.67751 0.91151,14.741 31.619,26.599 69.326,26.599 37.708,0 68.415,-11.858 69.326,-26.599 h 0.0295 v -0.50077 c 9.5e-4,-0.0587 0,-0.11794 0,-0.17674 0,-0.0588 9.4e-4,-0.11803 0,-0.17674 v -41.902 z"
                 style="fill:#ff9955;stroke-width:0.58472234"
                 id="path8140-6"
                 inkscape:connector-curvature="0" />
              <ellipse
                 transform="matrix(0.47131,0,0,1.0459,-967.153,-605.43428)"
                 style="fill:#ff6600;stroke-width:0.58472234"
                 id="path8142-1"
                 cx="328.57144"
                 cy="602.7193"
                 rx="147.14285"
                 ry="26.071428" />
              <ellipse
                 transform="matrix(0.46281,0,0,1.0271,-964.005,-595.98428)"
                 style="fill:#ffb380;stroke-width:0.58472234"
                 id="path8144-2"
                 cx="328.57144"
                 cy="602.7193"
                 rx="147.14285"
                 ry="26.071428" />
            </g>
            <g
               transform="translate(1.9642857,45.476467)"
               id="g8126-93"
               style="stroke-width:0.58472234">
              <ellipse
                 id="path8128-1"
                 style="fill:#d45500;stroke-width:0.58472234"
                 transform="matrix(0.47131,0,0,1.0459,-967.313,-561.51148)"
                 cx="328.57144"
                 cy="602.7193"
                 rx="147.14285"
                 ry="26.071428" />
              <path
                 inkscape:connector-curvature="0"
                 id="path8130-9"
                 style="fill:#ff9955;stroke-width:0.58472234"
                 d="m -881.654,23.78572 v 0.29457 c 0.006,-0.0975 0.0206,-0.19729 0.0295,-0.29457 z m 138.62,0 c 0.0302,0.33044 0.0589,0.66821 0.0589,1.0015 v -1.0015 z m 0.0589,1.0015 c -10e-6,15.052 -31.075,27.262 -69.356,27.262 -37.683,1e-5 -68.377,-11.828 -69.326,-26.555 v 40.68 c -0.0151,0.23376 -0.0147,0.45704 -0.0147,0.69223 0,0.22546 8.7e-4,0.45335 0.0147,0.67751 0.91151,14.741 31.619,26.599 69.326,26.599 37.708,0 68.415,-11.858 69.326,-26.599 h 0.0295 v -0.50077 c 9.5e-4,-0.0587 0,-0.11794 0,-0.17674 0,-0.0588 9.4e-4,-0.11803 0,-0.17674 v -41.902 z" />
              <ellipse
                 id="path8132-4"
                 style="fill:#ff6600;stroke-width:0.58472234"
                 transform="matrix(0.47131,0,0,1.0459,-967.153,-605.43428)"
                 cx="328.57144"
                 cy="602.7193"
                 rx="147.14285"
                 ry="26.071428" />
              <ellipse
                 id="path8134-7"
                 style="fill:#ffb380;stroke-width:0.58472234"
                 transform="matrix(0.46281,0,0,1.0271,-964.005,-595.98428)"
                 cx="328.57144"
                 cy="602.7193"
                 rx="147.14285"
                 ry="26.071428" />
            </g>
            <g
               transform="translate(1.9642857)"
               id="g8120-8"
               style="stroke-width:0.58472234">
              <ellipse
                 transform="matrix(0.47131,0,0,1.0459,-967.313,-561.51148)"
                 style="fill:#d45500;stroke-width:0.58472234"
                 id="path3861-1-4"
                 cx="328.57144"
                 cy="602.7193"
                 rx="147.14285"
                 ry="26.071428" />
              <path
                 d="m -881.654,23.78572 v 0.29457 c 0.006,-0.0975 0.0206,-0.19729 0.0295,-0.29457 z m 138.62,0 c 0.0302,0.33044 0.0589,0.66821 0.0589,1.0015 v -1.0015 z m 0.0589,1.0015 c -10e-6,15.052 -31.075,27.262 -69.356,27.262 -37.683,1e-5 -68.377,-11.828 -69.326,-26.555 v 40.68 c -0.0151,0.23376 -0.0147,0.45704 -0.0147,0.69223 0,0.22546 8.7e-4,0.45335 0.0147,0.67751 0.91151,14.741 31.619,26.599 69.326,26.599 37.708,0 68.415,-11.858 69.326,-26.599 h 0.0295 v -0.50077 c 9.5e-4,-0.0587 0,-0.11794 0,-0.17674 0,-0.0588 9.4e-4,-0.11803 0,-0.17674 v -41.902 z"
                 style="fill:#ff9955;stroke-width:0.58472234"
                 id="path3863-8-5"
                 inkscape:connector-curvature="0" />
              <ellipse
                 transform="matrix(0.47131,0,0,1.0459,-967.153,-605.43428)"
                 style="fill:#ff6600;stroke-width:0.58472234"
                 id="path3865-9-0"
                 cx="328.57144"
                 cy="602.7193"
                 rx="147.14285"
                 ry="26.071428" />
              <ellipse
                 transform="matrix(0.46281,0,0,1.0271,-964.005,-595.98428)"
                 style="fill:#ffb380;stroke-width:0.58472234"
                 id="path3867-2-3"
                 cx="328.57144"
                 cy="602.7193"
                 rx="147.14285"
                 ry="26.071428" />
            </g>
          </g>
        </g>
        <g
           transform="matrix(0.6478061,0,0,0.6478061,35.376457,-286.14735)"
           id="layer1-6-5"
           inkscape:label="Layer 1"
           style="stroke-width:0.58472234">
          <g
             id="g5591-6"
             transform="translate(1231.0309,463.97355)"
             style="stroke-width:0.58472234">
            <ellipse
               transform="matrix(0.59257,0,0,1.0459,-1006.5909,-452.16569)"
               style="fill:url(#radialGradient5558-3);stroke-width:0.58472234"
               id="path5556-2"
               cx="328.57144"
               cy="602.7193"
               rx="147.14285"
               ry="26.071428" />
            <g
               id="g8136-9"
               transform="translate(1.9642857,90.952937)"
               style="stroke-width:0.58472234">
              <ellipse
                 transform="matrix(0.47131,0,0,1.0459,-967.313,-561.51148)"
                 style="fill:#d45500;stroke-width:0.58472234"
                 id="path8138-1"
                 cx="328.57144"
                 cy="602.7193"
                 rx="147.14285"
                 ry="26.071428" />
              <path
                 d="m -881.654,23.78572 v 0.29457 c 0.006,-0.0975 0.0206,-0.19729 0.0295,-0.29457 z m 138.62,0 c 0.0302,0.33044 0.0589,0.66821 0.0589,1.0015 v -1.0015 z m 0.0589,1.0015 c -10e-6,15.052 -31.075,27.262 -69.356,27.262 -37.683,1e-5 -68.377,-11.828 -69.326,-26.555 v 40.68 c -0.0151,0.23376 -0.0147,0.45704 -0.0147,0.69223 0,0.22546 8.7e-4,0.45335 0.0147,0.67751 0.91151,14.741 31.619,26.599 69.326,26.599 37.708,0 68.415,-11.858 69.326,-26.599 h 0.0295 v -0.50077 c 9.5e-4,-0.0587 0,-0.11794 0,-0.17674 0,-0.0588 9.4e-4,-0.11803 0,-0.17674 v -41.902 z"
                 style="fill:#ff9955;stroke-width:0.58472234"
                 id="path8140-2"
                 inkscape:connector-curvature="0" />
              <ellipse
                 transform="matrix(0.47131,0,0,1.0459,-967.153,-605.43428)"
                 style="fill:#ff6600;stroke-width:0.58472234"
                 id="path8142-7"
                 cx="328.57144"
                 cy="602.7193"
                 rx="147.14285"
                 ry="26.071428" />
              <ellipse
                 transform="matrix(0.46281,0,0,1.0271,-964.005,-595.98428)"
                 style="fill:#ffb380;stroke-width:0.58472234"
                 id="path8144-0"
                 cx="328.57144"
                 cy="602.7193"
                 rx="147.14285"
                 ry="26.071428" />
            </g>
            <g
               transform="translate(1.9642857,45.476467)"
               id="g8126-9"
               style="stroke-width:0.58472234">
              <ellipse
                 id="path8128-3"
                 style="fill:#d45500;stroke-width:0.58472234"
                 transform="matrix(0.47131,0,0,1.0459,-967.313,-561.51148)"
                 cx="328.57144"
                 cy="602.7193"
                 rx="147.14285"
                 ry="26.071428" />
              <path
                 inkscape:connector-curvature="0"
                 id="path8130-6"
                 style="fill:#ff9955;stroke-width:0.58472234"
                 d="m -881.654,23.78572 v 0.29457 c 0.006,-0.0975 0.0206,-0.19729 0.0295,-0.29457 z m 138.62,0 c 0.0302,0.33044 0.0589,0.66821 0.0589,1.0015 v -1.0015 z m 0.0589,1.0015 c -10e-6,15.052 -31.075,27.262 -69.356,27.262 -37.683,1e-5 -68.377,-11.828 -69.326,-26.555 v 40.68 c -0.0151,0.23376 -0.0147,0.45704 -0.0147,0.69223 0,0.22546 8.7e-4,0.45335 0.0147,0.67751 0.91151,14.741 31.619,26.599 69.326,26.599 37.708,0 68.415,-11.858 69.326,-26.599 h 0.0295 v -0.50077 c 9.5e-4,-0.0587 0,-0.11794 0,-0.17674 0,-0.0588 9.4e-4,-0.11803 0,-0.17674 v -41.902 z" />
              <ellipse
                 id="path8132-0"
                 style="fill:#ff6600;stroke-width:0.58472234"
                 transform="matrix(0.47131,0,0,1.0459,-967.153,-605.43428)"
                 cx="328.57144"
                 cy="602.7193"
                 rx="147.14285"
                 ry="26.071428" />
              <ellipse
                 id="path8134-6"
                 style="fill:#ffb380;stroke-width:0.58472234"
                 transform="matrix(0.46281,0,0,1.0271,-964.005,-595.98428)"
                 cx="328.57144"
                 cy="602.7193"
                 rx="147.14285"
                 ry="26.071428" />
            </g>
            <g
               transform="translate(1.9642857)"
               id="g8120-2"
               style="stroke-width:0.58472234">
              <ellipse
                 transform="matrix(0.47131,0,0,1.0459,-967.313,-561.51148)"
                 style="fill:#d45500;stroke-width:0.58472234"
                 id="path3861-1-6"
                 cx="328.57144"
                 cy="602.7193"
                 rx="147.14285"
                 ry="26.071428" />
              <path
                 d="m -881.654,23.78572 v 0.29457 c 0.006,-0.0975 0.0206,-0.19729 0.0295,-0.29457 z m 138.62,0 c 0.0302,0.33044 0.0589,0.66821 0.0589,1.0015 v -1.0015 z m 0.0589,1.0015 c -10e-6,15.052 -31.075,27.262 -69.356,27.262 -37.683,1e-5 -68.377,-11.828 -69.326,-26.555 v 40.68 c -0.0151,0.23376 -0.0147,0.45704 -0.0147,0.69223 0,0.22546 8.7e-4,0.45335 0.0147,0.67751 0.91151,14.741 31.619,26.599 69.326,26.599 37.708,0 68.415,-11.858 69.326,-26.599 h 0.0295 v -0.50077 c 9.5e-4,-0.0587 0,-0.11794 0,-0.17674 0,-0.0588 9.4e-4,-0.11803 0,-0.17674 v -41.902 z"
                 style="fill:#ff9955;stroke-width:0.58472234"
                 id="path3863-8-1"
                 inkscape:connector-curvature="0" />
              <ellipse
                 transform="matrix(0.47131,0,0,1.0459,-967.153,-605.43428)"
                 style="fill:#ff6600;stroke-width:0.58472234"
                 id="path3865-9-8"
                 cx="328.57144"
                 cy="602.7193"
                 rx="147.14285"
                 ry="26.071428" />
              <ellipse
                 transform="matrix(0.46281,0,0,1.0271,-964.005,-595.98428)"
                 style="fill:#ffb380;stroke-width:0.58472234"
                 id="path3867-2-7"
                 cx="328.57144"
                 cy="602.7193"
                 rx="147.14285"
                 ry="26.071428" />
            </g>
          </g>
        </g>
        <g
           transform="matrix(0.6478061,0,0,0.6478061,117.50869,-267.34302)"
           id="layer1-6"
           inkscape:label="Layer 1"
           style="stroke-width:0.58472234">
          <g
             id="g5591"
             transform="translate(1231.0309,463.97355)"
             style="stroke-width:0.58472234">
            <ellipse
               transform="matrix(0.59257,0,0,1.0459,-1006.5909,-452.16569)"
               style="fill:url(#radialGradient5558);stroke-width:0.58472234"
               id="path5556"
               cx="328.57144"
               cy="602.7193"
               rx="147.14285"
               ry="26.071428" />
            <g
               id="g8136"
               transform="translate(1.9642857,90.952937)"
               style="stroke-width:0.58472234">
              <ellipse
                 transform="matrix(0.47131,0,0,1.0459,-967.313,-561.51148)"
                 style="fill:#d45500;stroke-width:0.58472234"
                 id="path8138"
                 cx="328.57144"
                 cy="602.7193"
                 rx="147.14285"
                 ry="26.071428" />
              <path
                 d="m -881.654,23.78572 v 0.29457 c 0.006,-0.0975 0.0206,-0.19729 0.0295,-0.29457 z m 138.62,0 c 0.0302,0.33044 0.0589,0.66821 0.0589,1.0015 v -1.0015 z m 0.0589,1.0015 c -10e-6,15.052 -31.075,27.262 -69.356,27.262 -37.683,1e-5 -68.377,-11.828 -69.326,-26.555 v 40.68 c -0.0151,0.23376 -0.0147,0.45704 -0.0147,0.69223 0,0.22546 8.7e-4,0.45335 0.0147,0.67751 0.91151,14.741 31.619,26.599 69.326,26.599 37.708,0 68.415,-11.858 69.326,-26.599 h 0.0295 v -0.50077 c 9.5e-4,-0.0587 0,-0.11794 0,-0.17674 0,-0.0588 9.4e-4,-0.11803 0,-0.17674 v -41.902 z"
                 style="fill:#ff9955;stroke-width:0.58472234"
                 id="path8140"
                 inkscape:connector-curvature="0" />
              <ellipse
                 transform="matrix(0.47131,0,0,1.0459,-967.153,-605.43428)"
                 style="fill:#ff6600;stroke-width:0.58472234"
                 id="path8142"
                 cx="328.57144"
                 cy="602.7193"
                 rx="147.14285"
                 ry="26.071428" />
              <ellipse
                 transform="matrix(0.46281,0,0,1.0271,-964.005,-595.98428)"
                 style="fill:#ffb380;stroke-width:0.58472234"
                 id="path8144"
                 cx="328.57144"
                 cy="602.7193"
                 rx="147.14285"
                 ry="26.071428" />
            </g>
            <g
               transform="translate(1.9642857,45.476467)"
               id="g8126"
               style="stroke-width:0.58472234">
              <ellipse
                 id="path8128"
                 style="fill:#d45500;stroke-width:0.58472234"
                 transform="matrix(0.47131,0,0,1.0459,-967.313,-561.51148)"
                 cx="328.57144"
                 cy="602.7193"
                 rx="147.14285"
                 ry="26.071428" />
              <path
                 inkscape:connector-curvature="0"
                 id="path8130"
                 style="fill:#ff9955;stroke-width:0.58472234"
                 d="m -881.654,23.78572 v 0.29457 c 0.006,-0.0975 0.0206,-0.19729 0.0295,-0.29457 z m 138.62,0 c 0.0302,0.33044 0.0589,0.66821 0.0589,1.0015 v -1.0015 z m 0.0589,1.0015 c -10e-6,15.052 -31.075,27.262 -69.356,27.262 -37.683,1e-5 -68.377,-11.828 -69.326,-26.555 v 40.68 c -0.0151,0.23376 -0.0147,0.45704 -0.0147,0.69223 0,0.22546 8.7e-4,0.45335 0.0147,0.67751 0.91151,14.741 31.619,26.599 69.326,26.599 37.708,0 68.415,-11.858 69.326,-26.599 h 0.0295 v -0.50077 c 9.5e-4,-0.0587 0,-0.11794 0,-0.17674 0,-0.0588 9.4e-4,-0.11803 0,-0.17674 v -41.902 z" />
              <ellipse
                 id="path8132"
                 style="fill:#ff6600;stroke-width:0.58472234"
                 transform="matrix(0.47131,0,0,1.0459,-967.153,-605.43428)"
                 cx="328.57144"
                 cy="602.7193"
                 rx="147.14285"
                 ry="26.071428" />
              <ellipse
                 id="path8134"
                 style="fill:#ffb380;stroke-width:0.58472234"
                 transform="matrix(0.46281,0,0,1.0271,-964.005,-595.98428)"
                 cx="328.57144"
                 cy="602.7193"
                 rx="147.14285"
                 ry="26.071428" />
            </g>
            <g
               transform="translate(1.9642857)"
               id="g8120"
               style="stroke-width:0.58472234">
              <ellipse
                 transform="matrix(0.47131,0,0,1.0459,-967.313,-561.51148)"
                 style="fill:#d45500;stroke-width:0.58472234"
                 id="path3861-1"
                 cx="328.57144"
                 cy="602.7193"
                 rx="147.14285"
                 ry="26.071428" />
              <path
                 d="m -881.654,23.78572 v 0.29457 c 0.006,-0.0975 0.0206,-0.19729 0.0295,-0.29457 z m 138.62,0 c 0.0302,0.33044 0.0589,0.66821 0.0589,1.0015 v -1.0015 z m 0.0589,1.0015 c -10e-6,15.052 -31.075,27.262 -69.356,27.262 -37.683,1e-5 -68.377,-11.828 -69.326,-26.555 v 40.68 c -0.0151,0.23376 -0.0147,0.45704 -0.0147,0.69223 0,0.22546 8.7e-4,0.45335 0.0147,0.67751 0.91151,14.741 31.619,26.599 69.326,26.599 37.708,0 68.415,-11.858 69.326,-26.599 h 0.0295 v -0.50077 c 9.5e-4,-0.0587 0,-0.11794 0,-0.17674 0,-0.0588 9.4e-4,-0.11803 0,-0.17674 v -41.902 z"
                 style="fill:#ff9955;stroke-width:0.58472234"
                 id="path3863-8"
                 inkscape:connector-curvature="0" />
              <ellipse
                 transform="matrix(0.47131,0,0,1.0459,-967.153,-605.43428)"
                 style="fill:#ff6600;stroke-width:0.58472234"
                 id="path3865-9"
                 cx="328.57144"
                 cy="602.7193"
                 rx="147.14285"
                 ry="26.071428" />
              <ellipse
                 transform="matrix(0.46281,0,0,1.0271,-964.005,-595.98428)"
                 style="fill:#ffb380;stroke-width:0.58472234"
                 id="path3867-2"
                 cx="328.57144"
                 cy="602.7193"
                 rx="147.14285"
                 ry="26.071428" />
            </g>
          </g>
        </g>
        <text
           xml:space="preserve"
           style="font-style:normal;font-variant:normal;font-weight:normal;font-stretch:normal;line-height:0%;font-family:'Helvetica Narrow';-inkscape-font-specification:'Helvetica Narrow, Normal';text-align:start;letter-spacing:0px;word-spacing:0px;writing-mode:lr-tb;text-anchor:start;fill:#000000;fill-opacity:1;stroke:none;stroke-width:0.58472234px;stroke-linecap:butt;stroke-linejoin:miter;stroke-opacity:1"
           x="271.07904"
           y="203.73067"
           id="text4287"><tspan
             style="font-size:53.97782898px;line-height:1.25;stroke-width:0.58472234px"
             sodipodi:role="line"
             id="tspan4289"
             x="271.07904"
             y="203.73067">SGBD</tspan></text>
      </g>
      <g
         transform="matrix(0.55558302,0,0,0.55598455,537.36172,-396.59784)"
         id="g4301-1"
         style="stroke-width:0.58472234">
        <rect
           style="color:#000000;clip-rule:nonzero;display:inline;overflow:visible;visibility:visible;opacity:1;isolation:auto;mix-blend-mode:normal;color-interpolation:sRGB;color-interpolation-filters:linearRGB;solid-color:#000000;solid-opacity:1;fill:#feeefe;fill-opacity:1;fill-rule:nonzero;stroke:#000000;stroke-width:1.05206811;stroke-linecap:butt;stroke-linejoin:round;stroke-miterlimit:4;stroke-dasharray:none;stroke-dashoffset:0;stroke-opacity:1;color-rendering:auto;image-rendering:auto;shape-rendering:auto;text-rendering:auto;enable-background:accumulate"
           id="rect4291-4"
           width="221.21776"
           height="276.78937"
           x="237.43442"
           y="-55.949158"
           rx="18.405964"
           ry="18.369514" />
        <text
           xml:space="preserve"
           style="font-style:normal;font-variant:normal;font-weight:normal;font-stretch:normal;font-size:40.48337173px;line-height:0%;font-family:Garuda;-inkscape-font-specification:'Garuda, Normal';font-variant-ligatures:normal;font-variant-caps:normal;font-variant-numeric:normal;font-feature-settings:normal;text-align:start;letter-spacing:0px;word-spacing:0px;writing-mode:lr-tb;text-anchor:start;fill:#000000;fill-opacity:1;stroke:none;stroke-width:0.58472234px;stroke-linecap:butt;stroke-linejoin:miter;stroke-opacity:1"
           x="252.45158"
           y="186.9268"
           id="text4287-3"><tspan
             y="186.9268"
             x="252.45158"
             id="tspan9537"
             sodipodi:role="line"
             style="stroke-width:0.58472234px">Navigateur</tspan></text>
        <g
           inkscape:label="Layer 1"
           id="layer1-1"
           transform="matrix(10.631444,0,0,10.623766,230.13339,-69.620624)"
           style="stroke-width:0.58472234">
          <path
             style="fill:#ffff00;fill-opacity:1;fill-rule:evenodd;stroke:none;stroke-width:0.01779382;stroke-opacity:1"
             d="m 16.498808,12.017565 c 1.09e-4,-0.136438 0.0054,-0.188388 0.01175,-0.115462 0.0064,0.07292 0.0061,0.18457 -1.97e-4,0.248056 -0.0064,0.06351 -0.01149,0.004 -0.01149,-0.132594 z"
             id="path9194"
             inkscape:connector-curvature="0" />
          <g
             transform="matrix(0.72081541,0,0,0.74841466,-9.8571214,-733.76495)"
             id="g9211"
             style="fill:#000000;stroke-width:0.58472234">
            <path
               inkscape:connector-curvature="0"
               id="path9190"
               d="m 27.559395,1005.5334 -0.130688,-0.6295 -0.727838,-0.2003 c -0.400311,-0.1102 -1.083864,-0.3634 -1.519009,-0.5627 l -0.791171,-0.3624 -0.601076,0.3736 c -0.330593,0.2056 -0.646476,0.3584 -0.701964,0.3397 -0.05549,-0.019 -0.654117,-0.5261 -1.330287,-1.1277 l -1.229399,-1.0937 0.408081,-0.5344 c 0.224445,-0.294 0.408082,-0.5864 0.408082,-0.6499 0,-0.063 -0.152391,-0.3854 -0.338645,-0.7155 -0.186255,-0.3301 -0.455092,-0.92461 -0.597416,-1.32107 -0.25824,-0.71936 -0.259888,-0.72099 -0.803933,-0.79769 -1.030851,-0.14532 -0.955319,0.003 -0.955319,-1.87415 v -1.67767 l 0.768439,-0.0823 c 0.691619,-0.0741 0.779952,-0.11351 0.883598,-0.39452 0.06334,-0.17172 0.331058,-0.77012 0.594935,-1.32979 l 0.479778,-1.01757 -0.428399,-0.5836 -0.428399,-0.5836 1.374967,-1.16677 1.374968,-1.16677 0.598916,0.39766 0.598916,0.39766 0.636062,-0.28089 c 0.349835,-0.15449 0.934868,-0.37491 1.300076,-0.48982 l 0.664013,-0.20893 0.140272,-0.74341 0.140271,-0.74342 h 1.920325 c 1.599874,0 1.920324,0.0284 1.920324,0.17002 0,0.38582 0.261942,1.35342 0.366391,1.35342 0.06193,0 0.613332,0.18755 1.225345,0.41678 l 1.112748,0.41677 0.662052,-0.40493 0.66205,-0.40492 1.296253,1.18546 c 0.712941,0.652 1.312391,1.22242 1.332113,1.2676 0.01973,0.0452 -0.146283,0.32076 -0.368903,0.61241 l -0.404761,0.53027 0.591825,1.16536 0.591825,1.16537 0.861062,0.1389 0.861062,0.1389 v 1.68139 1.68139 l -0.322266,0.0639 c -0.177246,0.0351 -0.52418,0.0987 -0.770963,0.14128 -0.304349,0.0525 -0.480192,0.15745 -0.546591,0.32627 -0.37721,0.95907 -0.885089,2.24141 -0.911896,2.30241 -0.0177,0.04 0.157973,0.3222 0.390387,0.6266 l 0.422573,0.5534 -0.644736,0.727 c -0.354604,0.3999 -0.878921,0.9898 -1.165149,1.311 l -0.520415,0.584 -0.676036,-0.4488 -0.676035,-0.4489 -0.892951,0.4158 c -0.491124,0.2286 -1.15574,0.5119 -1.476925,0.6295 -0.574404,0.2102 -0.585963,0.2242 -0.705528,0.8553 l -0.121555,0.6416 -1.834383,0.032 -1.834384,0.032 z m 3.747189,-2.3143 c 1.334209,-0.3697 2.170584,-0.8669 3.231553,-1.921 1.451306,-1.44192 2.037581,-2.82561 2.037581,-4.80898 0,-1.98226 -0.585875,-3.36558 -2.037581,-4.81099 -1.616737,-1.60973 -3.285638,-2.23839 -5.635418,-2.12281 -2.114235,0.10399 -3.535028,0.72618 -4.981321,2.18142 -2.103744,2.11675 -2.599465,5.11248 -1.291133,7.80255 0.633776,1.30311 2.174903,2.73471 3.605632,3.34931 1.441967,0.6194 3.53565,0.7559 5.070687,0.3305 z"
               style="fill:#000000;fill-opacity:1;fill-rule:evenodd;stroke:none;stroke-width:0.06852215;stroke-opacity:1" />
            <ellipse
               ry="7.4713569"
               rx="8.4819164"
               cy="995.99365"
               cx="29.294973"
               id="path9196"
               style="fill:#000000;fill-opacity:1;fill-rule:evenodd;stroke:none;stroke-width:0.60478628;stroke-opacity:1" />
          </g>
          <ellipse
             style="fill:#ffffff;fill-opacity:1;fill-rule:evenodd;stroke:none;stroke-width:0.07331315;stroke-opacity:1"
             id="path8815-0"
             cx="11.271603"
             cy="11.980262"
             rx="1.5771353"
             ry="1.6942191" />
          <g
             id="g9329"
             transform="matrix(0.84634838,0,0,0.80143125,-13.046366,-786.09268)"
             style="fill:#ffffff;stroke-width:0.58472234">
            <path
               style="opacity:1;fill:#ffffff;fill-opacity:1;stroke:none;stroke-width:0.29236117;stroke-linejoin:round;stroke-miterlimit:4;stroke-dasharray:none;stroke-dashoffset:0;stroke-opacity:1"
               d="m 23.699931,999.17453 a 6,6 0 0 0 3.878189,2.60747 6,6 0 0 0 7.034686,-4.74317 l 0.813476,0.1581 -1.581075,-2.3448 -2.344961,1.5811 0.997741,0.1943 a 3.84375,3.84375 0 0 1 -4.508387,3.0399 3.84375,3.84375 0 0 1 -3.089298,-3.3938 l -1.198354,0.808 a 0.17817269,0.17817269 0 0 1 -0.237357,-0.03 0.17817269,0.17817269 0 0 1 -0.0099,-0.015 l -0.72939,-1.0816 a 6,6 0 0 0 0.974038,3.2229 z"
               id="use8607"
               inkscape:connector-curvature="0" />
            <path
               style="opacity:1;fill:#ffffff;fill-opacity:1;stroke:none;stroke-width:0.29236117;stroke-linejoin:round;stroke-miterlimit:4;stroke-dasharray:none;stroke-dashoffset:0;stroke-opacity:1"
               d="m 33.765695,992.44493 a 5.9999999,5.9999999 0 0 0 -3.878189,-2.6075 5.9999999,5.9999999 0 0 0 -7.034686,4.7432 l -0.813475,-0.1581 1.581075,2.3448 2.34496,-1.5811 -0.997742,-0.1943 a 3.8437499,3.8437499 0 0 1 4.508388,-3.0399 3.8437499,3.8437499 0 0 1 3.089298,3.3938 l 1.198354,-0.808 a 0.17817269,0.17817269 0 0 1 0.237357,0.03 0.17817269,0.17817269 0 0 1 0.0099,0.015 l 0.72939,1.0816 a 5.9999999,5.9999999 0 0 0 -0.974038,-3.2229 z"
               id="use8607-8"
               inkscape:connector-curvature="0" />
          </g>
        </g>
      </g>
      <g
         transform="translate(497.02432,180.39747)"
         id="g8399"
         style="stroke-width:0.58472234">
        <path
           style="fill:none;fill-rule:evenodd;stroke:#000000;stroke-width:1.75416708;stroke-linecap:butt;stroke-linejoin:miter;stroke-miterlimit:4;stroke-dasharray:none;stroke-opacity:1;marker-end:url(#marker5108-1)"
           d="m 570.85415,-554.07044 c 0,0 11.59395,-5.87873 44.10991,-22.86587 22.4995,-11.7543 41.68911,5.68863 73.11751,30.88141"
           id="path4826"
           inkscape:connector-curvature="0"
           sodipodi:nodetypes="csc" />
        <path
           style="fill:none;fill-rule:evenodd;stroke:#000000;stroke-width:1.75416708;stroke-linecap:butt;stroke-linejoin:miter;stroke-miterlimit:4;stroke-dasharray:none;stroke-opacity:1;marker-end:url(#marker5108-4-7)"
           d="m 691.36473,-509.21518 c 0,0 -11.59395,5.87872 -44.1099,22.86586 -22.49951,11.7543 -41.68912,-5.68862 -73.11751,-30.88141"
           id="path4826-8"
           inkscape:connector-curvature="0"
           sodipodi:nodetypes="csc" />
        <text
           xml:space="preserve"
           style="font-style:normal;font-variant:normal;font-weight:normal;font-stretch:normal;line-height:0%;font-family:'Abyssinica SIL';-inkscape-font-specification:'Abyssinica SIL, Normal';text-align:start;letter-spacing:0px;word-spacing:0px;writing-mode:lr-tb;text-anchor:start;fill:#000000;fill-opacity:1;stroke:none;stroke-width:0.58472234px;stroke-linecap:butt;stroke-linejoin:miter;stroke-opacity:1"
           x="608.01337"
           y="-593.0874"
           id="text8275"><tspan
             style="font-size:24.99999809px;line-height:1.25;stroke-width:0.58472234px"
             sodipodi:role="line"
             id="tspan8277"
             x="608.01337"
             y="-593.0874">SQL</tspan></text>
        <text
           xml:space="preserve"
           style="font-style:normal;font-variant:normal;font-weight:normal;font-stretch:normal;line-height:0%;font-family:'Abyssinica SIL';-inkscape-font-specification:'Abyssinica SIL, Normal';text-align:start;letter-spacing:0px;word-spacing:0px;writing-mode:lr-tb;text-anchor:start;fill:#000000;fill-opacity:1;stroke:none;stroke-width:0.58472234px;stroke-linecap:butt;stroke-linejoin:miter;stroke-opacity:1"
           x="605.04895"
           y="-500.44684"
           id="text8279"><tspan
             style="font-size:22.5px;line-height:1.25;stroke-width:0.58472234px"
             sodipodi:role="line"
             id="tspan8281"
             x="605.04895"
             y="-500.44684">ÉTAT</tspan></text>
        <text
           xml:space="preserve"
           style="font-style:normal;font-variant:normal;font-weight:normal;font-stretch:normal;line-height:0%;font-family:'Abyssinica SIL';-inkscape-font-specification:'Abyssinica SIL, Normal';text-align:start;letter-spacing:0px;word-spacing:0px;writing-mode:lr-tb;text-anchor:start;fill:#000000;fill-opacity:1;stroke:none;stroke-width:0.58472234px;stroke-linecap:butt;stroke-linejoin:miter;stroke-opacity:1"
           x="579.85065"
           y="-454.49707"
           id="text8283"><tspan
             style="font-size:22.5px;line-height:1.25;stroke-width:0.58472234px"
             sodipodi:role="line"
             id="tspan8285"
             x="579.85065"
             y="-454.49707">DONNÉES</tspan></text>
      </g>
      <g
         transform="matrix(0.55558302,0,0,0.55598455,805.06998,-401.34519)"
         id="g4301-1-3"
         style="stroke-width:0.58472234">
        <rect
           style="color:#000000;clip-rule:nonzero;display:inline;overflow:visible;visibility:visible;opacity:1;isolation:auto;mix-blend-mode:normal;color-interpolation:sRGB;color-interpolation-filters:linearRGB;solid-color:#000000;solid-opacity:1;fill:#feeefe;fill-opacity:1;fill-rule:nonzero;stroke:#000000;stroke-width:1.05206811;stroke-linecap:butt;stroke-linejoin:round;stroke-miterlimit:4;stroke-dasharray:none;stroke-dashoffset:0;stroke-opacity:1;color-rendering:auto;image-rendering:auto;shape-rendering:auto;text-rendering:auto;enable-background:accumulate"
           id="rect4291-4-7"
           width="221.21776"
           height="276.78937"
           x="237.43442"
           y="-55.949158"
           rx="18.405964"
           ry="18.369514" />
        <text
           xml:space="preserve"
           style="font-style:normal;font-variant:normal;font-weight:normal;font-stretch:normal;line-height:0%;font-family:'Helvetica Narrow';-inkscape-font-specification:'Helvetica Narrow, Normal';text-align:center;letter-spacing:0px;word-spacing:0px;writing-mode:lr-tb;text-anchor:middle;fill:#000000;fill-opacity:1;stroke:none;stroke-width:0.58472234px;stroke-linecap:butt;stroke-linejoin:miter;stroke-opacity:1"
           x="349.04724"
           y="169.95531"
           id="text4287-3-7"><tspan
             style="font-size:44.98152542px;line-height:0.89999998;stroke-width:0.58472234px"
             y="169.95531"
             x="349.04724"
             id="tspan13549"
             sodipodi:role="line">SERVEUR</tspan><tspan
             style="font-size:44.98152542px;line-height:0.89999998;stroke-width:0.58472234px"
             y="210.43867"
             x="349.04724"
             id="tspan13551"
             sodipodi:role="line">WEB</tspan></text>
        <g
           inkscape:label="Layer 1"
           id="layer1-1-6"
           transform="matrix(10.631444,0,0,10.623766,230.13339,-69.620624)"
           style="stroke-width:0.58472234">
          <path
             style="fill:#ffff00;fill-opacity:1;fill-rule:evenodd;stroke:none;stroke-width:0.01779382;stroke-opacity:1"
             d="m 16.498808,12.017565 c 1.09e-4,-0.136438 0.0054,-0.188388 0.01175,-0.115462 0.0064,0.07292 0.0061,0.18457 -1.97e-4,0.248056 -0.0064,0.06351 -0.01149,0.004 -0.01149,-0.132594 z"
             id="path9194-4"
             inkscape:connector-curvature="0" />
          <g
             transform="matrix(0.72081541,0,0,0.74841466,-9.8571214,-733.76495)"
             id="g9211-5"
             style="fill:#000000;stroke-width:0.58472234" />
          <g
             id="g9329-9"
             transform="matrix(0.84634838,0,0,0.80143125,-13.046366,-786.09268)"
             style="fill:#ffffff;stroke-width:0.58472234" />
        </g>
      </g>
      <g
         transform="translate(236.88952,175.95073)"
         id="g8399-0"
         style="stroke-width:0.58472234">
        <path
           style="fill:none;fill-rule:evenodd;stroke:#000000;stroke-width:1.75416708;stroke-linecap:butt;stroke-linejoin:miter;stroke-miterlimit:4;stroke-dasharray:none;stroke-opacity:1;marker-end:url(#marker5108-1-9)"
           d="m 570.85415,-554.07044 c 0,0 11.59395,-5.87873 44.10991,-22.86587 22.4995,-11.7543 41.68911,5.68863 73.11751,30.88141"
           id="path4826-3"
           inkscape:connector-curvature="0"
           sodipodi:nodetypes="csc" />
        <path
           style="fill:none;fill-rule:evenodd;stroke:#000000;stroke-width:1.75416708;stroke-linecap:butt;stroke-linejoin:miter;stroke-miterlimit:4;stroke-dasharray:none;stroke-opacity:1;marker-end:url(#marker5108-4-7-5)"
           d="m 691.36473,-509.21518 c 0,0 -11.59395,5.87872 -44.1099,22.86586 -22.49951,11.7543 -41.68912,-5.68862 -73.11751,-30.88141"
           id="path4826-8-7"
           inkscape:connector-curvature="0"
           sodipodi:nodetypes="csc" />
        <text
           xml:space="preserve"
           style="font-style:normal;font-variant:normal;font-weight:normal;font-stretch:normal;line-height:0%;font-family:'Abyssinica SIL';-inkscape-font-specification:'Abyssinica SIL, Normal';text-align:start;letter-spacing:0px;word-spacing:0px;writing-mode:lr-tb;text-anchor:start;fill:#000000;fill-opacity:1;stroke:none;stroke-width:0.58472234px;stroke-linecap:butt;stroke-linejoin:miter;stroke-opacity:1"
           x="585.51337"
           y="-593.0874"
           id="text8275-8"><tspan
             style="font-size:24.99999809px;line-height:1.25;stroke-width:0.58472234px"
             sodipodi:role="line"
             id="tspan8277-8"
             x="585.51337"
             y="-593.0874">requête</tspan></text>
        <text
           xml:space="preserve"
           style="font-style:normal;font-variant:normal;font-weight:normal;font-stretch:normal;font-size:20px;line-height:0%;font-family:'Abyssinica SIL';-inkscape-font-specification:'Abyssinica SIL, Normal';font-variant-ligatures:normal;font-variant-caps:normal;font-variant-numeric:normal;font-feature-settings:normal;text-align:start;letter-spacing:0px;word-spacing:0px;writing-mode:lr-tb;text-anchor:start;fill:#000000;fill-opacity:1;stroke:none;stroke-width:0.58472234px;stroke-linecap:butt;stroke-linejoin:miter;stroke-opacity:1"
           x="577.85773"
           y="-458.8815"
           id="text8283-4"><tspan
             y="-458.8815"
             x="577.85773"
             id="tspan9539"
             sodipodi:role="line"
             style="stroke-width:0.58472234px">HTML/JSON</tspan></text>
        <text
           xml:space="preserve"
           style="font-style:normal;font-variant:normal;font-weight:normal;font-stretch:normal;font-size:12px;line-height:0%;font-family:'Abyssinica SIL';-inkscape-font-specification:'Abyssinica SIL, Normal';text-align:start;letter-spacing:0px;word-spacing:0px;writing-mode:lr-tb;text-anchor:start;fill:#000000;fill-opacity:1;stroke:none;stroke-width:0.58472234px;stroke-linecap:butt;stroke-linejoin:miter;stroke-opacity:1"
           x="602.48517"
           y="-550.80743"
           id="text8275-8-3"><tspan
             style="font-size:24.99999809px;line-height:1.25;stroke-width:0.58472234px"
             sodipodi:role="line"
             id="tspan8277-8-6"
             x="602.48517"
             y="-550.80743">http</tspan><tspan
             style="font-size:24.99999809px;line-height:1.25;stroke-width:0.58472234px"
             sodipodi:role="line"
             x="602.48517"
             y="-539.65753"
             id="tspan5073" /></text>
      </g>
      <g
         transform="matrix(0.9375,0,0,0.9375,938.73469,-428.51327)"
         id="g5119"
         style="stroke-width:0.58472234">
        <circle
           r="68.379425"
           cy="77.944687"
           cx="79.895966"
           id="path3115"
           style="fill:url(#radialGradient2927-0);fill-rule:evenodd;stroke-width:0.58472241pt"
           transform="matrix(-0.70028,0,0,0.25062,103.83,65.069)" />
        <g
           id="g970"
           transform="translate(-19.786,-29.087)"
           style="stroke-width:0.58472234">
          <circle
             r="68.379425"
             cy="77.944687"
             cx="79.895966"
             id="path1399"
             style="fill:url(#radialGradient858-93);fill-rule:evenodd;stroke-width:0.58472241pt"
             transform="matrix(-0.70028,0,0,0.25062,150.61,79.334)" />
          <circle
             r="172.74803"
             cy="453.50235"
             cx="224.57243"
             id="path825"
             style="fill:url(#radialGradient852-92);fill-rule:evenodd;stroke-width:0.58472241pt"
             transform="matrix(-0.23555,0,0,0.23555,145.55,-37.045)" />
          <path
             id="path846"
             style="fill:#0e7a0c;fill-opacity:0.59375;fill-rule:evenodd;stroke-width:0.58472241pt"
             d="m 80.468,74.849 c -1.829,-0.213 -1.847,-3.308 -0.03,-3.559 1.142,0.643 2.202,-2.068 2.785,-0.987 -0.481,2.049 2.133,1.585 2.632,0.011 0.742,-1.27 0.37,1.097 0.655,1.601 0.664,1.632 -1.392,3.912 -2.908,2.532 -1.085,-0.963 -2.08,0.061 -3.134,0.402 z m 3.826,1.127 c 0.183,0.708 0.556,0.772 0.8,0.025 0.243,-0.708 -0.671,-0.576 -0.8,-0.025 z M 70.447,58.816 c -1.511,1.497 -1.957,3.658 -2.46,5.644 0.374,1.401 1.5,2.829 0.203,4.109 -0.829,1.802 -3.498,0.668 -2.833,-1.164 -0.034,-2.171 -0.299,-4.47 0.744,-6.468 0.571,-1.271 1.652,-2.8 3.214,-2.655 0.412,0.092 0.778,0.314 1.132,0.534 z m 3.341,5.01 c -0.108,-1.741 1.795,-1.592 1.366,-3.673 -0.074,-1.765 -3.757,-0.886 -2.678,-2.992 1.004,-1.574 0.884,-2.381 3.398,-2.788 2.515,-0.517 5.205,-1.122 9.434,1.997 4.117,3.119 -3.425,0.646 -4.329,1.79 -1.453,1.224 -0.798,3.901 -2.492,4.463 -1.464,0.939 -1.348,2.879 -1.592,4.4 0.291,1.246 4.147,0.361 2.344,2.071 -1.833,0.465 -3.062,-1.381 -4.337,-2.355 -0.646,-0.61 -1.007,-1.283 -1.114,-2.913 z M 86.48,61.265 c 1.557,-0.099 2.196,1.687 2.059,2.984 -0.848,1.414 1.019,2.732 1.942,1.278 0.995,-1.757 -0.628,-3.957 -2.148,-4.888 -0.672,-0.595 -1.995,-0.514 -1.853,0.626 z m -15.365,14.92 c 1.957,-0.03 3.931,-0.474 5.875,-0.065 0.758,1.019 2.897,1.732 2.925,2.797 -1.509,1.056 -3.47,0.064 -5.047,-0.345 -1.252,-0.379 -3.031,-0.116 -3.678,-1.523 -0.091,-0.276 -0.138,-0.576 -0.075,-0.864 z"
             sodipodi:nodetypes="ccczcccczzzcccccccccczzccccczccccccccccc"
             inkscape:connector-curvature="0"
             transform="matrix(2.9324,0,0,2.9324,-136.14,-124.39)" />
          <path
             id="path863"
             style="fill:url(#linearGradient14031);fill-rule:evenodd;stroke-width:0.58472241pt"
             d="M 66.013,31.409 C 91.448,15.908 143.19,38.839 135.61,82.029 125.33,95.725 106.73,25.696 66.013,31.409 Z"
             sodipodi:nodetypes="ccc"
             inkscape:connector-curvature="0"
             transform="matrix(-0.70028,0,0,0.70028,149.18,13.144)" />
          <circle
             r="49.665058"
             cy="31.15876"
             cx="51.104626"
             id="path868"
             style="fill:url(#linearGradient14029);fill-rule:evenodd;stroke-width:0.58472241pt"
             transform="matrix(-0.58864,0,0,0.39581,122.05,37.371)" />
          <circle
             r="49.665058"
             cy="31.15876"
             cx="51.104626"
             id="path884"
             style="fill:url(#linearGradient14027);fill-rule:evenodd;stroke-width:0.58472241pt"
             transform="matrix(-0.61401,0,0,0.48207,124.46,70.924)" />
          <rect
             id="rect3102"
             style="fill:none;stroke:url(#linearGradient14042);stroke-width:2.92361188;stroke-linecap:round;stroke-linejoin:round"
             transform="matrix(0.14109,0,0,0.14109,16.623,-8.2716)"
             height="59.424999"
             width="161.96001"
             y="732.31"
             x="181.75999" />
          <path
             id="path2940"
             inkscape:connector-curvature="0"
             style="fill:none;stroke:url(#linearGradient5145);stroke-width:2.64271116;stroke-linecap:round;stroke-linejoin:round"
             transform="matrix(0.14109,0,0,0.14109,16.623,-8.2716)"
             d="m 191.47,842.08 v 85.21" />
          <path
             id="path2941"
             inkscape:connector-curvature="0"
             style="fill:none;stroke:url(#linearGradient5147);stroke-width:2.64271116;stroke-linecap:round;stroke-linejoin:round"
             transform="matrix(0.14109,0,0,0.14109,16.623,-8.2716)"
             d="m 216.64,842.08 v 85.21" />
          <path
             id="path2942"
             inkscape:connector-curvature="0"
             style="fill:none;stroke:url(#linearGradient5149);stroke-width:2.64271116;stroke-linecap:round;stroke-linejoin:round"
             transform="matrix(0.14109,0,0,0.14109,16.623,-8.2716)"
             d="m 241.82,842.08 v 85.21" />
          <path
             id="path2943"
             inkscape:connector-curvature="0"
             style="fill:none;stroke:url(#linearGradient14050);stroke-width:2.64271116;stroke-linecap:round;stroke-linejoin:round"
             transform="matrix(0.14109,0,0,0.14109,16.623,-8.2716)"
             d="m 266.99,842.08 v 85.21" />
          <path
             id="path3109"
             inkscape:connector-curvature="0"
             style="fill:none;stroke:#000000;stroke-width:2.64271116;stroke-linecap:round;stroke-linejoin:round;stroke-opacity:0.20754999"
             transform="matrix(0.14109,0,0,0.14109,16.623,-8.2716)"
             d="m 188.57,842.44 v 85.21" />
          <path
             id="path2930"
             inkscape:connector-curvature="0"
             style="fill:none;stroke:#000000;stroke-width:2.64271116;stroke-linecap:round;stroke-linejoin:round;stroke-opacity:0.20754999"
             transform="matrix(0.14109,0,0,0.14109,16.623,-8.2716)"
             d="m 213.75,842.44 v 85.21" />
          <path
             id="path2931"
             inkscape:connector-curvature="0"
             style="fill:none;stroke:#000000;stroke-width:2.64271116;stroke-linecap:round;stroke-linejoin:round;stroke-opacity:0.20754999"
             transform="matrix(0.14109,0,0,0.14109,16.623,-8.2716)"
             d="m 238.92,842.44 v 85.21" />
          <path
             id="path2932"
             inkscape:connector-curvature="0"
             style="fill:none;stroke:#000000;stroke-width:2.64271116;stroke-linecap:round;stroke-linejoin:round;stroke-opacity:0.20754999"
             transform="matrix(0.14109,0,0,0.14109,16.623,-8.2716)"
             d="m 264.09,842.44 v 85.21" />
        </g>
        <g
           id="g1007"
           transform="translate(-19.786,-29.087)"
           style="stroke-width:0.58472234">
          <path
             id="path3542"
             inkscape:connector-curvature="0"
             sodipodi:nodetypes="czzzzzzzz"
             style="fill:#ffffff;fill-rule:evenodd;stroke-width:0.66354293"
             d="m 25.456,124.12 0.687,-65.947 c 0.033,-3.158 3.367,-10.269 6.525,-10.269 h 32.629 c 2.591,0 5.495,6.305 5.495,8.895 v 64.911 c 0,2.84 -3.177,6.01 -6.01,6.01 H 30.608 c -2.097,0 -5.174,-1.51 -5.152,-3.6 z" />
          <path
             id="path3098"
             style="fill:url(#linearGradient14046);fill-rule:evenodd;stroke:url(#linearGradient14044);stroke-width:4.70292187"
             d="m 61.026,938.27 4.868,-467.4 c 0.234,-22.39 23.869,-72.79 46.256,-72.79 h 231.26 c 18.36,0 38.95,44.69 38.95,63.05 v 460.09 c 0,20.09 -22.52,42.61 -42.6,42.61 H 97.54 c -14.856,0 -36.669,-10.71 -36.514,-25.56 z"
             sodipodi:nodetypes="czzzzzzzz"
             inkscape:connector-curvature="0"
             transform="matrix(0.14109,0,0,0.14109,16.623,-8.2716)" />
          <rect
             id="rect3099"
             style="fill:none;stroke:url(#linearGradient14052);stroke-width:2.92361188;stroke-linecap:round;stroke-linejoin:round"
             transform="matrix(0.14109,0,0,0.14109,16.623,-8.2716)"
             height="87.789001"
             width="247.25"
             y="486.32999"
             x="98.679001" />
          <circle
             r="1.4446203"
             cy="76.854073"
             cx="57.945324"
             id="path3100"
             style="fill:url(#linearGradient14048);fill-rule:evenodd;stroke:url(#linearGradient2928-85);stroke-width:0.13631047"
             transform="matrix(3.0261,0,0,3.0261,-141.2,-132.88)" />
          <rect
             id="rect3101"
             style="fill:none;stroke:url(#linearGradient14040);stroke-width:2.92361188;stroke-linecap:round;stroke-linejoin:round"
             transform="matrix(0.14109,0,0,0.14109,16.623,-8.2716)"
             height="87.789001"
             width="247.25"
             y="600.79999"
             x="97.818001" />
          <rect
             id="rect3103"
             style="fill:url(#linearGradient14054);fill-rule:evenodd;stroke-width:0.11694448;stroke-linecap:round;stroke-linejoin:round;stroke-opacity:0.13836"
             transform="matrix(0.14109,0,0,0.14109,16.623,-8.2716)"
             height="124.76"
             width="251.86"
             y="820.57001"
             x="92.024002" />
          <path
             id="path3069"
             inkscape:connector-curvature="0"
             sodipodi:nodetypes="czzccc"
             style="fill:url(#linearGradient14060);fill-rule:evenodd;stroke-width:0.58472241pt"
             d="m 68.903,74.796 c -7.302,14.195 -9.717,29.544 -23.816,32.084 -14.098,2.53 -18.877,12.01 -18.313,17.08 0.564,5.07 38.911,4.23 40.602,1.69 1.692,-2.53 1.692,-6.33 1.692,-8.45 0,-2.11 2.091,-41.77 -0.165,-42.404 z" />
          <path
             id="path2944"
             inkscape:connector-curvature="0"
             style="fill:none;stroke:#ffffff;stroke-width:2.64271116;stroke-linecap:round;stroke-linejoin:round"
             transform="matrix(0.14109,0,0,0.14109,16.623,-8.2716)"
             d="m 166.3,842.08 v 85.21" />
          <path
             id="path2935"
             inkscape:connector-curvature="0"
             style="fill:none;stroke:#000000;stroke-width:2.64271116;stroke-linecap:round;stroke-linejoin:round;stroke-opacity:0.20754999"
             transform="matrix(0.14109,0,0,0.14109,16.623,-8.2716)"
             d="m 163.4,842.44 v 85.21" />
        </g>
      </g>
    </g>
    <g
       transform="matrix(-2.4856786,0,0,2.4881532,-119.43456,-974.46784)"
       id="layer1-0"
       inkscape:label="Layer 1"
       style="stroke-width:0.44339857">
      <g
         transform="matrix(0.99999757,0,0,0.99999791,-164.76168,-8.3930731)"
         id="g3860"
         style="stroke-width:0.44339857">
        <path
           inkscape:connector-curvature="0"
           style="color:#000000;fill:#000000;stroke-width:1.17404795"
           d="m 58.063882,277.29357 -14.146175,6.54263 c 0,0 -4.639278,3.62917 0.207014,7.17487 4.846291,3.5457 14.12924,2.53401 14.12924,2.53401 l 13.256367,-6.59748 c 0,0 4.495607,-5.38705 1.632532,-7.89456 -2.862838,-2.50778 -15.920764,-1.22819 -15.078317,-1.75947 z"
           id="path4" />
        <path
           inkscape:connector-curvature="0"
           style="fill:#000000;stroke-width:1.17404795;enable-background:new"
           d="m 45.876978,235.69165 -0.386324,4.64272 -5.022401,2.70863 -22.794484,-1.93462 v -6.57761 l 28.202389,1.16088 z"
           id="path6" />
        <path
           inkscape:connector-curvature="0"
           style="fill:#000000;stroke-width:1.17404795;enable-background:new"
           d="m 10.425948,204.42397 c 0,0 -5.4028713,-1.17966 -30.445328,18.89902 0.266148,0.47802 21.9457169,-0.71262 34.694869,-3.03412 12.749417,-2.32149 -3.090647,-15.47697 -4.249806,-15.86357 z"
           id="path8"
           sodipodi:nodetypes="ccscc" />
        <path
           inkscape:connector-curvature="0"
           style="fill:#000000;stroke:#000000;stroke-width:1.16782689;enable-background:new"
           d="m 3.7686602,185.87534 3.8619202,-1.7433 18.1597036,28.82721 -5.217932,18.37904 -4.440838,-0.5811 -12.363383,-44.88237 z"
           id="path10" />
        <path
           inkscape:connector-curvature="0"
           style="fill:#0b1728;stroke-width:1.17404795;enable-background:new"
           d="m 120.82935,210.25354 c 1.54529,1.93462 1.06364,15.45842 -0.77271,25.14928 -1.46915,7.75386 -12.27421,18.4482 -21.59828,25.99988 -9.324066,7.55141 -14.765045,2.82575 -14.765045,2.82575 l -9.539969,-23.04614 1.214298,-1.00904 21.894622,-21.7949 23.567084,-8.12536 z"
           id="path12" />
        <path
           inkscape:connector-curvature="0"
           style="fill:#f6e6cc;stroke:#000000;stroke-width:3.50348091;stroke-linecap:round;stroke-linejoin:round;enable-background:new"
           d="m 98.529905,170.2415 c -7.581228,0.18549 -12.919282,4.80834 -12.676655,13.55004 l -0.044,8.10204 c -2.088655,0.28061 -5.276935,0.97168 -5.276935,2.64238 0,1.59121 3.213945,3.46992 5.504745,4.04493 l 0.130282,4.07778 c 0,0 3.972783,4.54971 8.858657,5.13771 l 3.304963,10.52078 17.868128,-11.27094 -5.17904,-10.69991 c 1.80729,-0.81482 4.39665,-2.53613 5.48861,-6.03493 1.76329,-5.65097 1.47359,-11.74737 -5.57963,-16.69111 -2.20406,-1.5451 -8.9539,-3.46277 -12.400156,-3.3785 z"
           id="path14" />
        <path
           inkscape:connector-curvature="0"
           d="m 101.32395,186.67029 -13.605623,0.4086 -2.543533,0.12189 1.391731,8.45923 0.743861,-0.14309 -0.383916,-6.87306 13.55641,-1.02945 c 2.93401,-0.21198 2.42489,2.1943 2.6405,3.865 0.24856,1.92721 -2.71519,2.64398 -1.22382,2.40311 1.4914,-0.24113 2.97714,-1.43354 2.23153,-5.04655 -0.37286,-1.80637 -1.63515,-2.21656 -2.80754,-2.16277 z"
           style="fill:#000c00;stroke-width:1.17404795;enable-background:new"
           id="path18" />
        <path
           inkscape:connector-curvature="0"
           style="fill:#ffffff;stroke:#000000;stroke-width:3.50348091;stroke-linecap:round;stroke-linejoin:round;enable-background:new"
           d="M 8.4066157,184.55044 21.54233,187.25881 33.519416,227.49872 20.769999,230.59396 8.4066157,184.55097 Z"
           id="path20" />
        <path
           inkscape:connector-curvature="0"
           style="fill:#4d4d4d;stroke:#000000;stroke-width:1.09697509;enable-background:new"
           d="m 47.313689,234.36675 -11.589994,-3.86924 -18.158381,3.86924 24.725709,4.64299 5.022401,-4.64299 z"
           id="path22" />
        <path
           inkscape:connector-curvature="0"
           style="fill:#f6e6cc;stroke:#000000;stroke-width:3.50348091;stroke-linecap:round;stroke-linejoin:round;enable-background:new"
           d="m 73.896802,223.76754 c -1.756623,0.0318 -6.517321,0.67729 -7.773054,1.35431 -5.022401,2.70837 -10.42131,8.8159 -10.42131,8.8159 l -2.248122,-1.69296 -0.01667,-0.0662 -2.377901,-2.62251 c -0.303376,0.45285 -12.103029,-0.10334 -16.63171,0.29042 0,0 -0.792731,3.48529 4.465974,3.49059 2.054945,-0.55196 3.664537,-0.12189 5.656353,0.43933 l -5.656353,6.91652 c 0,0 3.05678,2.50036 5.761129,-2.5295 0.557169,-1.03634 4.265681,-0.55858 4.825019,-0.71624 0.827286,2.59998 2.053941,5.43156 3.517957,5.43156 2.704349,0 32.840609,-3.1045 34.772098,-7.74776 1.931701,-4.64272 -3.864566,-11.99301 -4.250864,-12.38014 0,0 -1.612661,0.56944 -6.882716,0.62376 l -2.740069,0.39191 h 2.83e-4 z"
           id="path24" />
        <path
           inkscape:connector-curvature="0"
           style="fill:#001400;stroke-width:1.17404795;enable-background:new"
           d="m 93.968415,196.20958 c -0.161901,0.49313 -0.797176,1.72555 -3.387515,3.60453 -1.454543,1.05515 -3.185634,1.20486 -4.690608,1.04402 v 1.28833 c 2.267939,0.57263 4.427344,-0.13779 5.586237,-0.995 1.623033,-1.20327 2.354777,-4.31096 2.491859,-4.94188 z"
           id="path26" />
        <path
           inkscape:connector-curvature="0"
           style="color:#000000;fill:#000000;stroke-width:1.17404795"
           d="m 85.607448,190.64499 4.054275,1.64314 c 0,0 -2.799336,-6.47691 -4.054275,-1.64314 z"
           id="path28" />
        <path
           inkscape:connector-curvature="0"
           style="color:#000000;fill:#6c5d53;stroke:#000000;stroke-width:3.50348091;stroke-linecap:round;stroke-linejoin:round"
           d="m 74.857255,242.84612 -23.474209,6.04208 c -6.217544,1.60022 -14.534854,7.41521 -6.581616,18.12599 7.952708,10.7113 9.38254,15.78673 11.407957,17.30242 5.964598,4.46306 17.414096,-7.48411 17.414096,-7.48411 l -7.651079,-11.68563 c 0,0 22.81618,0.49445 25.009876,-0.0556 2.193854,-0.54904 -14.479555,-21.69632 -16.125025,-22.24616 z"
           id="path30" />
        <rect
           ry="7.5010672"
           style="color:#000000;fill:#000000;stroke:#000000;stroke-width:1.3957969"
           transform="matrix(0.99124409,0.13204227,-0.13187768,0.991266,0,0)"
           height="34.780426"
           width="8.6255131"
           y="187.53207"
           x="149.92824"
           id="rect32"
           rx="7.5082746" />
        <path
           inkscape:connector-curvature="0"
           style="color:#000000;text-indent:0;text-transform:none;fill:#ffffff;stroke-width:1.17404795"
           d="m 78.177829,239.66636 c -6.750158,0 -12.204367,5.51079 -12.204367,12.30145 h 48.692048 c 0,-6.78986 -5.45394,-12.30145 -12.20436,-12.30145 H 78.178093 Z m 0,2.01146 h 24.283051 c 5.67461,0 10.20514,4.57727 10.20514,10.28999 H 67.974538 c 0,-5.71272 4.530269,-10.28999 10.205143,-10.28999 z"
           id="path34" />
        <path
           inkscape:connector-curvature="0"
           style="color:#000000;fill:#000000;stroke-width:1.17404795"
           d="m 76.35482,241.25624 c -7.157887,0 -12.909227,5.78399 -12.909227,12.95304 v 5.52696 c 0,7.16851 5.751604,12.95303 12.909227,12.95303 h 27.98014 c 7.15788,0 12.90922,-5.78452 12.90922,-12.95303 v -5.52696 c 0,-7.16852 -5.7516,-12.95304 -12.90922,-12.95304 z m -1.751622,7.69 h 31.938362 c 4.58398,0 8.27815,3.69965 8.27815,8.2907 v 3.53245 c 0,1.46508 -0.37021,2.82072 -1.03183,4.01313 -0.47343,-1.78226 -3.28195,-3.16042 -6.71868,-3.17208 l -33.089318,-0.098 c -3.34227,0 -6.125996,1.24938 -6.742749,2.95585 -0.556084,-1.11795 -0.887797,-2.36177 -0.887797,-3.70071 v -3.53272 c 0,-4.59078 3.670358,-8.29044 8.254338,-8.29044 z"
           id="path36" />
        <path
           inkscape:connector-curvature="0"
           style="color:#000000;fill:#000000;stroke-width:1.17404795"
           d="m 84.990959,170.77146 c 0,0 -2.001685,3.88303 1.000882,4.08733 3.002539,0.20668 3.102553,-0.8172 3.102553,-0.8172 0,0 7.406336,-2.75871 8.40727,1.73694 1.000882,4.49566 -0.600508,5.00654 -0.600508,5.00654 0,0 1.901618,2.14581 1.401203,3.57671 -0.500441,1.4301 4.003211,0.20403 4.003211,0.20403 0,0 3.60289,-1.12378 3.80318,2.45213 0.20019,3.57671 0.20019,5.00733 0.20019,5.00733 l 6.80572,3.37161 c 0,0 4.00321,-1.83922 4.90413,-5.92655 0.90076,-4.08679 0.70057,-12.0566 -2.80251,-14.91786 -3.50288,-2.86099 -13.11137,-7.76525 -18.115254,-6.2326 -5.004409,1.53238 -11.209517,5.61943 -12.110173,2.45212 z"
           id="path38" />
        <path
           inkscape:connector-curvature="0"
           style="fill:#0b1728;stroke-width:1.17404795;enable-background:new"
           d="m 110.40195,206.54381 c 0,0 8.49935,-2.32149 11.20369,3.86898 2.70435,6.19074 0.77271,12.38174 -5.79499,15.47671 -6.56786,3.0955 -24.72571,11.22059 -24.72571,11.22059 0,0 -0.772702,1.16062 -3.863508,0.38714 -3.090648,-0.77401 -5.408699,-12.38174 -5.794997,-16.25072 -0.386377,-3.86897 8.113049,-5.8036 11.977085,-6.96448 3.863508,-1.16087 18.15838,-8.51196 16.99869,-7.73822 z"
           id="path16" />
      </g>
    </g>
  </g>
</svg>
