#FIG 3.2  Produced by xfig version 3.2.5c
Landscape
Center
Metric
A4      
100.00
Single
-2
1200 2
2 4 0 2 0 7 50 -1 20 0.000 0 0 7 0 0 5
	 2925 2265 2250 2265 2250 1590 2925 1590 2925 2265
2 4 0 2 0 7 50 -1 20 0.000 0 0 7 0 0 5
	 2040 1815 1365 1815 1365 1140 2040 1140 2040 1815
2 4 0 2 0 7 50 -1 20 0.000 0 0 7 0 0 5
	 1125 2250 450 2250 450 1575 1125 1575 1125 2250
2 1 0 10 0 7 60 -1 -1 0.000 0 0 -1 0 0 2
	 2583 2106 1863 1566
2 1 0 10 0 7 60 -1 -1 0.000 0 0 -1 0 0 2
	 822 2106 1542 1566
