#FIG 3.2
Landscape
Center
Metric
A4      
100.00
Single
-2
1200 2
6 6210 675 7515 1665
6 6615 1215 6885 1665
1 3 0 1 0 0 50 0 20 0.000 1 0.0000 6750 1260 25 25 6750 1260 6775 1260
1 3 0 1 0 0 50 0 20 0.000 1 0.0000 6750 1260 25 25 6750 1260 6775 1260
2 1 0 2 0 7 50 0 -1 0.000 0 0 -1 0 0 2
	 6750 1260 6750 1530
2 1 0 2 0 7 50 0 -1 0.000 0 0 -1 0 0 2
	 6705 1620 6795 1620
2 1 0 2 0 7 50 0 -1 0.000 0 0 7 0 0 2
	 6670 1575 6830 1575
2 1 0 2 0 7 50 0 -1 0.000 0 0 -1 0 0 2
	 6635 1530 6865 1530
-6
6 7245 1485 7515 1665
2 1 0 2 0 7 50 0 -1 0.000 0 0 -1 0 0 2
	 7335 1620 7425 1620
2 1 0 2 0 7 50 0 -1 0.000 0 0 7 0 0 2
	 7300 1575 7460 1575
2 1 0 2 0 7 50 0 -1 0.000 0 0 -1 0 0 2
	 7265 1530 7495 1530
-6
1 3 0 1 0 0 50 0 20 0.000 1 0.0000 7065 1260 25 25 7065 1260 7090 1260
1 3 0 1 0 0 50 0 20 0.000 1 0.0000 7065 1260 25 25 7065 1260 7090 1260
2 2 0 1 0 7 60 0 13 0.000 0 0 -1 0 0 5
	 6300 1125 6570 1125 6570 1395 6300 1395 6300 1125
2 2 0 1 0 7 60 0 13 0.000 0 0 -1 0 0 5
	 6615 1125 6885 1125 6885 1395 6615 1395 6615 1125
2 2 0 1 0 7 60 0 18 0.000 0 0 -1 0 0 5
	 6300 765 7200 765 7200 1080 6300 1080 6300 765
2 2 0 2 0 7 50 0 -1 0.000 0 0 -1 0 0 5
	 6255 720 7245 720 7245 1440 6255 1440 6255 720
2 2 0 1 0 7 60 0 13 0.000 0 0 -1 0 0 5
	 6930 1125 7200 1125 7200 1395 6930 1395 6930 1125
2 2 0 1 0 7 60 0 13 0.000 0 0 -1 0 0 5
	 6300 1125 6570 1125 6570 1395 6300 1395 6300 1125
2 1 0 2 0 7 50 0 -1 0.000 0 0 -1 0 0 3
	 7065 1260 7380 1260 7380 1530
4 1 0 50 -1 18 18 0.0000 4 210 195 6750 1035 R\001
-6
6 4950 3555 5220 4005
1 3 0 1 0 0 50 0 20 0.000 1 0.0000 5085 3600 25 25 5085 3600 5110 3600
1 3 0 1 0 0 50 0 20 0.000 1 0.0000 5085 3600 25 25 5085 3600 5110 3600
2 1 0 2 0 7 50 0 -1 0.000 0 0 -1 0 0 2
	 5085 3600 5085 3870
2 1 0 2 0 7 50 0 -1 0.000 0 0 -1 0 0 2
	 5040 3960 5130 3960
2 1 0 2 0 7 50 0 -1 0.000 0 0 7 0 0 2
	 5005 3915 5165 3915
2 1 0 2 0 7 50 0 -1 0.000 0 0 -1 0 0 2
	 4970 3870 5200 3870
-6
6 3465 3555 3735 4005
1 3 0 1 0 0 50 0 20 0.000 1 0.0000 3600 3600 25 25 3600 3600 3625 3600
1 3 0 1 0 0 50 0 20 0.000 1 0.0000 3600 3600 25 25 3600 3600 3625 3600
2 1 0 2 0 7 50 0 -1 0.000 0 0 -1 0 0 2
	 3600 3600 3600 3870
2 1 0 2 0 7 50 0 -1 0.000 0 0 -1 0 0 2
	 3555 3960 3645 3960
2 1 0 2 0 7 50 0 -1 0.000 0 0 7 0 0 2
	 3520 3915 3680 3915
2 1 0 2 0 7 50 0 -1 0.000 0 0 -1 0 0 2
	 3485 3870 3715 3870
-6
6 8145 3555 8415 4005
1 3 0 1 0 0 50 0 20 0.000 1 0.0000 8280 3600 25 25 8280 3600 8305 3600
1 3 0 1 0 0 50 0 20 0.000 1 0.0000 8280 3600 25 25 8280 3600 8305 3600
2 1 0 2 0 7 50 0 -1 0.000 0 0 -1 0 0 2
	 8280 3600 8280 3870
2 1 0 2 0 7 50 0 -1 0.000 0 0 -1 0 0 2
	 8235 3960 8325 3960
2 1 0 2 0 7 50 0 -1 0.000 0 0 7 0 0 2
	 8200 3915 8360 3915
2 1 0 2 0 7 50 0 -1 0.000 0 0 -1 0 0 2
	 8165 3870 8395 3870
-6
6 8460 3555 8730 4005
1 3 0 1 0 0 50 0 20 0.000 1 0.0000 8595 3600 25 25 8595 3600 8620 3600
1 3 0 1 0 0 50 0 20 0.000 1 0.0000 8595 3600 25 25 8595 3600 8620 3600
2 1 0 2 0 7 50 0 -1 0.000 0 0 -1 0 0 2
	 8595 3600 8595 3870
2 1 0 2 0 7 50 0 -1 0.000 0 0 -1 0 0 2
	 8550 3960 8640 3960
2 1 0 2 0 7 50 0 -1 0.000 0 0 7 0 0 2
	 8515 3915 8675 3915
2 1 0 2 0 7 50 0 -1 0.000 0 0 -1 0 0 2
	 8480 3870 8710 3870
-6
6 6435 3555 6705 4005
1 3 0 1 0 0 50 0 20 0.000 1 0.0000 6570 3600 25 25 6570 3600 6595 3600
1 3 0 1 0 0 50 0 20 0.000 1 0.0000 6570 3600 25 25 6570 3600 6595 3600
2 1 0 2 0 7 50 0 -1 0.000 0 0 -1 0 0 2
	 6570 3600 6570 3870
2 1 0 2 0 7 50 0 -1 0.000 0 0 -1 0 0 2
	 6525 3960 6615 3960
2 1 0 2 0 7 50 0 -1 0.000 0 0 7 0 0 2
	 6490 3915 6650 3915
2 1 0 2 0 7 50 0 -1 0.000 0 0 -1 0 0 2
	 6455 3870 6685 3870
-6
6 6750 3555 7020 4005
1 3 0 1 0 0 50 0 20 0.000 1 0.0000 6885 3600 25 25 6885 3600 6910 3600
1 3 0 1 0 0 50 0 20 0.000 1 0.0000 6885 3600 25 25 6885 3600 6910 3600
2 1 0 2 0 7 50 0 -1 0.000 0 0 -1 0 0 2
	 6885 3600 6885 3870
2 1 0 2 0 7 50 0 -1 0.000 0 0 -1 0 0 2
	 6840 3960 6930 3960
2 1 0 2 0 7 50 0 -1 0.000 0 0 7 0 0 2
	 6805 3915 6965 3915
2 1 0 2 0 7 50 0 -1 0.000 0 0 -1 0 0 2
	 6770 3870 7000 3870
-6
6 8460 2295 8730 2745
1 3 0 1 0 0 50 0 20 0.000 1 0.0000 8595 2340 25 25 8595 2340 8620 2340
1 3 0 1 0 0 50 0 20 0.000 1 0.0000 8595 2340 25 25 8595 2340 8620 2340
2 1 0 2 0 7 50 0 -1 0.000 0 0 -1 0 0 2
	 8595 2340 8595 2610
2 1 0 2 0 7 50 0 -1 0.000 0 0 -1 0 0 2
	 8550 2700 8640 2700
2 1 0 2 0 7 50 0 -1 0.000 0 0 7 0 0 2
	 8515 2655 8675 2655
2 1 0 2 0 7 50 0 -1 0.000 0 0 -1 0 0 2
	 8480 2610 8710 2610
-6
1 3 0 1 0 0 50 0 20 0.000 1 0.0000 6435 1260 25 25 6435 1260 6460 1260
1 3 0 1 0 0 50 0 20 0.000 1 0.0000 5715 2340 25 25 5715 2340 5740 2340
1 3 0 1 0 0 50 0 20 0.000 1 0.0000 5085 2340 25 25 5085 2340 5110 2340
1 3 0 1 0 0 50 0 20 0.000 1 0.0000 5400 2340 25 25 5400 2340 5425 2340
1 3 0 1 0 0 50 0 20 0.000 1 0.0000 8910 3600 25 25 8910 3600 8935 3600
1 3 0 1 0 0 50 0 20 0.000 1 0.0000 5715 3600 25 25 5715 3600 5740 3600
1 3 0 1 0 0 50 0 20 0.000 1 0.0000 5400 3600 25 25 5400 3600 5425 3600
1 3 0 1 0 0 50 0 20 0.000 1 0.0000 4230 3600 25 25 4230 3600 4255 3600
1 3 0 1 0 0 50 0 20 0.000 1 0.0000 3915 3600 25 25 3915 3600 3940 3600
1 3 0 1 0 0 50 0 20 0.000 1 0.0000 7200 3600 25 25 7200 3600 7225 3600
1 3 0 1 0 0 50 0 20 0.000 1 0.0000 7200 3600 25 25 7200 3600 7225 3600
1 3 0 1 0 0 50 0 20 0.000 1 0.0000 8280 2340 25 25 8280 2340 8305 2340
1 3 0 1 0 0 50 0 20 0.000 1 0.0000 8910 2340 25 25 8910 2340 8935 2340
1 3 0 1 0 0 50 0 20 0.000 1 0.0000 8910 2340 25 25 8910 2340 8935 2340
1 3 0 1 0 0 50 0 20 0.000 1 0.0000 3690 855 25 25 3690 855 3715 855
2 2 0 1 0 7 60 0 13 0.000 0 0 -1 0 0 5
	 4950 2205 5220 2205 5220 2475 4950 2475 4950 2205
2 2 0 1 0 7 60 0 13 0.000 0 0 -1 0 0 5
	 5265 2205 5535 2205 5535 2475 5265 2475 5265 2205
2 2 0 1 0 7 60 0 18 0.000 0 0 -1 0 0 5
	 4950 1845 5850 1845 5850 2160 4950 2160 4950 1845
2 2 0 1 0 7 60 0 13 0.000 0 0 -1 0 0 5
	 5580 2205 5850 2205 5850 2475 5580 2475 5580 2205
2 2 0 2 0 7 50 0 -1 0.000 0 0 -1 0 0 5
	 4905 1800 5895 1800 5895 2520 4905 2520 4905 1800
2 1 0 2 0 7 50 0 -1 0.000 1 0 7 0 1 3
	1 1 1.00 60.00 90.00
	 3915 3060 3915 2340 5085 2340
2 1 0 2 0 7 50 0 -1 0.000 1 0 7 0 1 6
	1 1 1.00 60.00 90.00
	 4905 3645 4725 3645 4455 3915 4005 3915 3915 3825 3915 3600
2 2 0 1 0 7 60 0 13 0.000 0 0 -1 0 0 5
	 3465 3465 3735 3465 3735 3735 3465 3735 3465 3465
2 2 0 1 0 7 60 0 13 0.000 0 0 -1 0 0 5
	 3780 3465 4050 3465 4050 3735 3780 3735 3780 3465
2 2 0 1 0 7 60 0 18 0.000 0 0 -1 0 0 5
	 3465 3105 4365 3105 4365 3420 3465 3420 3465 3105
2 2 0 2 0 7 50 0 -1 0.000 0 0 -1 0 0 5
	 3420 3060 4410 3060 4410 3780 3420 3780 3420 3060
2 2 0 1 0 7 60 0 13 0.000 0 0 -1 0 0 5
	 4095 3465 4365 3465 4365 3735 4095 3735 4095 3465
2 1 0 2 0 7 50 0 -1 0.000 1 0 7 0 1 3
	1 1 1.00 60.00 90.00
	 5400 1800 5400 1260 6435 1260
2 1 0 2 0 7 50 0 -1 0.000 1 0 7 0 1 4
	1 1 1.00 60.00 90.00
	 6390 1440 6390 1890 5940 2340 5715 2340
2 2 0 1 0 7 60 0 13 0.000 0 0 -1 0 0 5
	 8145 3465 8415 3465 8415 3735 8145 3735 8145 3465
2 2 0 1 0 7 60 0 13 0.000 0 0 -1 0 0 5
	 8460 3465 8730 3465 8730 3735 8460 3735 8460 3465
2 2 0 1 0 7 60 0 18 0.000 0 0 -1 0 0 5
	 8145 3105 9045 3105 9045 3420 8145 3420 8145 3105
2 2 0 2 0 7 50 0 -1 0.000 0 0 -1 0 0 5
	 8100 3060 9090 3060 9090 3780 8100 3780 8100 3060
2 2 0 1 0 7 60 0 13 0.000 0 0 -1 0 0 5
	 8775 3465 9045 3465 9045 3735 8775 3735 8775 3465
2 2 0 1 0 7 60 0 13 0.000 0 0 -1 0 0 5
	 4950 3465 5220 3465 5220 3735 4950 3735 4950 3465
2 2 0 1 0 7 60 0 13 0.000 0 0 -1 0 0 5
	 5265 3465 5535 3465 5535 3735 5265 3735 5265 3465
2 2 0 1 0 7 60 0 18 0.000 0 0 -1 0 0 5
	 4950 3105 5850 3105 5850 3420 4950 3420 4950 3105
2 2 0 2 0 7 50 0 -1 0.000 0 0 -1 0 0 5
	 4905 3060 5895 3060 5895 3780 4905 3780 4905 3060
2 2 0 1 0 7 60 0 13 0.000 0 0 -1 0 0 5
	 5580 3465 5850 3465 5850 3735 5580 3735 5580 3465
2 1 0 2 0 7 50 0 -1 0.000 1 0 -1 0 1 8
	1 1 1.00 60.00 90.00
	 5040 2520 5040 2790 5175 2925 5940 2925 6030 3015 6030 3510
	 5940 3600 5715 3600
2 1 0 2 0 7 50 0 -1 0.000 1 0 7 0 1 6
	1 1 1.00 60.00 90.00
	 6390 3645 6210 3645 5940 3915 5490 3915 5400 3825 5400 3600
2 2 0 1 0 7 60 0 13 0.000 0 0 -1 0 0 5
	 6435 3465 6705 3465 6705 3735 6435 3735 6435 3465
2 2 0 1 0 7 60 0 13 0.000 0 0 -1 0 0 5
	 6750 3465 7020 3465 7020 3735 6750 3735 6750 3465
2 2 0 1 0 7 60 0 18 0.000 0 0 -1 0 0 5
	 6435 3105 7335 3105 7335 3420 6435 3420 6435 3105
2 2 0 2 0 7 50 0 -1 0.000 0 0 -1 0 0 5
	 6390 3060 7380 3060 7380 3780 6390 3780 6390 3060
2 2 0 1 0 7 60 0 13 0.000 0 0 -1 0 0 5
	 7065 3465 7335 3465 7335 3735 7065 3735 7065 3465
2 1 0 2 0 7 50 0 -1 0.000 1 0 7 0 1 5
	1 1 1.00 60.00 90.00
	 4905 2520 4545 2880 4545 3510 4455 3600 4230 3600
2 1 0 2 0 7 50 0 -1 0.000 0 0 -1 0 1 2
	1 1 1.00 60.00 90.00
	 8280 3060 8280 2340
2 2 0 1 0 7 60 0 13 0.000 0 0 -1 0 0 5
	 8145 2205 8415 2205 8415 2475 8145 2475 8145 2205
2 2 0 1 0 7 60 0 13 0.000 0 0 -1 0 0 5
	 8460 2205 8730 2205 8730 2475 8460 2475 8460 2205
2 2 0 1 0 7 60 0 18 0.000 0 0 -1 0 0 5
	 8145 1845 9045 1845 9045 2160 8145 2160 8145 1845
2 2 0 2 0 7 50 0 -1 0.000 0 0 -1 0 0 5
	 8100 1800 9090 1800 9090 2520 8100 2520 8100 1800
2 2 0 1 0 7 60 0 13 0.000 0 0 -1 0 0 5
	 8775 2205 9045 2205 9045 2475 8775 2475 8775 2205
2 1 0 2 0 7 50 0 -1 0.000 1 0 -1 0 1 6
	1 1 1.00 60.00 90.00
	 8955 2520 8955 2745 9225 3015 9225 3510 9135 3600 8910 3600
2 1 0 2 0 7 50 0 -1 0.000 1 0 7 0 1 6
	1 1 1.00 60.00 90.00
	 7290 1080 8550 1080 9225 1755 9225 2250 9135 2340 8910 2340
2 1 0 2 0 7 50 0 -1 0.000 1 0 7 0 1 6
	1 1 1.00 60.00 90.00
	 8100 2340 6345 2340 6030 2655 5490 2655 5400 2565 5400 2340
2 1 0 2 0 7 50 0 -1 0.000 1 0 7 0 1 2
	1 1 1.00 60.00 90.00
	 6255 855 3690 855
2 1 0 2 0 7 50 0 -1 0.000 1 0 7 0 1 8
	1 1 1.00 60.00 90.00
	 5175 2520 5175 2700 5265 2790 7290 2790 7515 3015 7515 3510
	 7425 3600 7200 3600
2 2 0 2 0 7 60 0 13 0.000 0 0 -1 0 0 5
	 3420 720 3960 720 3960 990 3420 990 3420 720
4 1 0 50 -1 18 18 0.0000 4 210 195 5400 2115 A\001
4 1 0 50 -1 18 18 0.0000 4 210 210 3915 3375 C\001
4 1 0 50 -1 18 18 0.0000 4 210 180 8595 3375 F\001
4 1 0 50 -1 18 18 0.0000 4 210 210 5400 3375 D\001
4 1 0 50 -1 18 18 0.0000 4 210 180 6885 3375 E\001
4 1 0 50 -1 18 18 0.0000 4 210 195 8595 2115 B\001
