#FIG 3.2  Produced by xfig version 3.2.5-alpha5
Landscape
Center
Metric
A4      
100.00
Single
-2
1200 2
6 1305 2430 1845 2970
2 4 0 2 0 7 50 -1 20 0.000 0 0 7 0 0 5
	 1800 2925 1350 2925 1350 2475 1800 2475 1800 2925
4 0 0 50 -1 20 12 0.0000 4 135 90 1530 2767 2\001
-6
6 1845 2430 2385 2970
2 4 0 2 0 7 50 -1 20 0.000 0 0 7 0 0 5
	 2340 2925 1890 2925 1890 2475 2340 2475 2340 2925
4 0 0 50 -1 20 12 0.0000 4 135 90 2070 2767 4\001
-6
6 2385 2430 2925 2970
2 4 0 2 0 7 50 -1 20 0.000 0 0 7 0 0 5
	 2880 2925 2430 2925 2430 2475 2880 2475 2880 2925
4 0 0 50 -1 20 12 0.0000 4 135 90 2610 2767 7\001
-6
6 5625 2430 6165 2970
2 4 0 2 0 7 50 -1 15 0.000 0 0 7 0 0 5
	 6120 2925 5670 2925 5670 2475 6120 2475 6120 2925
4 0 0 50 -1 20 12 0.0000 4 135 180 5805 2767 12\001
-6
6 4545 2430 5085 2970
2 4 0 2 0 7 50 -1 15 0.000 0 0 7 0 0 5
	 5040 2925 4590 2925 4590 2475 5040 2475 5040 2925
4 0 0 50 -1 20 12 0.0000 4 135 90 4770 2767 1\001
-6
6 5085 2430 5625 2970
2 4 0 2 0 7 50 -1 15 0.000 0 0 7 0 0 5
	 5580 2925 5130 2925 5130 2475 5580 2475 5580 2925
4 0 0 50 -1 20 12 0.0000 4 135 90 5310 2767 5\001
-6
6 3465 2430 4005 2970
2 4 0 2 0 7 50 -1 20 0.000 0 0 7 0 0 5
	 3960 2925 3510 2925 3510 2475 3960 2475 3960 2925
4 0 0 50 -1 20 12 0.0000 4 135 180 3645 2767 11\001
-6
6 2925 2430 3465 2970
2 4 0 2 0 7 50 -1 20 0.000 0 0 7 0 0 5
	 3420 2925 2970 2925 2970 2475 3420 2475 3420 2925
4 0 0 50 -1 20 12 0.0000 4 135 90 3150 2767 8\001
-6
6 945 1665 4095 2610
3 2 0 2 1 7 50 -1 -1 0.000 0 1 0 3
	1 1 1.00 90.00 120.00
	 4050 1890 2250 1935 1755 2430
	 0.000 -1.000 0.000
3 2 0 2 1 7 50 -1 -1 0.000 0 1 0 3
	1 1 1.00 90.00 120.00
	 4050 1935 2745 1980 2385 2430
	 0.000 -1.000 0.000
3 2 0 2 1 7 50 -1 -1 0.000 0 1 0 3
	1 1 1.00 90.00 120.00
	 4050 1980 3150 2070 2925 2430
	 0.000 -1.000 0.000
3 2 0 2 1 7 50 -1 -1 0.000 0 1 0 3
	1 1 1.00 90.00 120.00
	 4050 2025 3555 2115 3465 2430
	 0.000 -1.000 0.000
3 2 0 2 1 7 50 -1 -1 0.000 0 1 0 3
	1 1 1.00 90.00 120.00
	 4050 1890 1665 1847 1215 2520
	 0.000 -1.000 0.000
3 2 0 2 1 7 50 -1 -1 0.000 0 1 0 4
	1 1 1.00 90.00 120.00
	 4050 2160 3735 2205 4005 2295 4050 2565
	 0.000 -1.000 -1.000 0.000
4 0 1 50 -1 18 16 0.0000 4 195 165 1485 2205 ?\001
-6
6 4005 1755 4545 2295
2 4 0 2 0 0 50 -1 20 0.000 0 0 7 0 0 5
	 4500 2250 4050 2250 4050 1800 4500 1800 4500 2250
4 0 7 50 -1 18 12 0.0000 4 135 105 4222 2092 3\001
-6
2 2 0 1 0 0 60 -1 20 0.000 0 0 -1 0 0 5
	 1665 2610 3825 2610 3825 2790 1665 2790 1665 2610
2 2 0 1 0 0 60 -1 20 0.000 0 0 -1 0 0 5
	 4815 2610 5895 2610 5895 2790 4815 2790 4815 2610
