#FIG 3.2  Produced by xfig version 3.2.5-alpha5
Landscape
Center
Metric
A4      
100.00
Single
-2
1200 2
6 1755 4230 2520 4995
2 4 0 2 0 7 50 -1 20 0.000 0 0 7 0 0 5
	 2475 4950 1800 4950 1800 4275 2475 4275 2475 4950
4 0 0 50 -1 22 18 0.0000 4 135 90 2047 4717 A\001
-6
6 2655 4230 3420 4995
2 4 0 2 0 7 50 -1 20 0.000 0 0 7 0 0 5
	 3375 4950 2700 4950 2700 4275 3375 4275 3375 4950
4 0 0 50 -1 22 18 0.0000 4 135 90 2947 4717 G\001
-6
6 2205 3330 2970 4095
2 4 0 2 0 7 50 -1 20 0.000 0 0 7 0 0 5
	 2925 4050 2250 4050 2250 3375 2925 3375 2925 4050
4 0 0 50 -1 22 18 0.0000 4 135 90 2497 3817 E\001
-6
6 4905 5175 5670 5940
2 4 0 2 0 7 50 -1 20 0.000 0 0 7 0 0 5
	 5625 5895 4950 5895 4950 5220 5625 5220 5625 5895
4 0 0 50 -1 22 18 0.0000 4 135 90 5190 5662 V\001
-6
6 3960 5175 4725 5940
2 4 0 2 0 7 50 -1 20 0.000 0 0 7 0 0 5
	 4680 5895 4005 5895 4005 5220 4680 5220 4680 5895
4 0 0 50 -1 22 18 0.0000 4 135 90 4260 5662 S\001
-6
6 4500 4230 5265 4995
2 4 0 2 0 7 50 -1 20 0.000 0 0 7 0 0 5
	 5220 4950 4545 4950 4545 4275 5220 4275 5220 4950
4 0 0 50 -1 22 18 0.0000 4 135 90 4807 4717 T\001
-6
6 4005 3330 4770 4095
2 4 0 2 0 7 50 -1 20 0.000 0 0 7 0 0 5
	 4725 4050 4050 4050 4050 3375 4725 3375 4725 4050
4 0 0 50 -1 22 18 0.0000 4 135 90 4305 3817 R\001
-6
6 3105 2430 3870 3195
2 4 0 2 0 7 50 -1 20 0.000 0 0 7 0 0 5
	 3825 3150 3150 3150 3150 2475 3825 2475 3825 3150
4 0 0 50 -1 22 18 0.0000 4 135 90 3397 2917 M\001
-6
2 1 0 10 0 7 60 -1 -1 0.000 0 0 -1 0 0 2
	 2115 4410 2475 3870
2 1 0 10 0 7 60 -1 -1 0.000 0 0 -1 0 0 2
	 3060 4410 2700 3870
2 1 0 10 0 7 60 -1 -1 0.000 0 0 -1 0 0 2
	 2610 3465 3330 2925
2 1 0 10 0 7 60 -1 -1 0.000 0 0 -1 0 0 2
	 4860 4410 4500 3870
2 1 0 10 0 7 60 -1 -1 0.000 0 0 -1 0 0 2
	 5310 5400 4950 4860
2 1 0 10 0 7 60 -1 -1 0.000 0 0 -1 0 0 2
	 4320 3465 3600 2925
2 1 0 10 0 7 60 -1 -1 0.000 0 0 -1 0 0 2
	 4320 5400 4680 4860
4 0 4 50 -1 22 18 0.0000 4 135 90 3690 6030 6\001
4 0 4 50 -1 22 18 0.0000 4 135 90 1530 5310 1\001
4 0 4 50 -1 22 18 0.0000 4 135 90 2610 5310 3\001
4 0 4 50 -1 22 18 0.0000 4 135 90 1980 4050 2\001
4 0 4 50 -1 22 18 0.0000 4 135 90 2925 2835 4\001
4 0 4 50 -1 22 18 0.0000 4 135 90 4230 4950 7\001
4 0 4 50 -1 22 18 0.0000 4 135 90 3825 4095 5\001
4 0 4 50 -1 22 18 0.0000 4 135 90 4815 6030 8\001
